{
    "StartAge": 21,
    "StartSalary": 2101.608,
    "CotisationTime": "42 - 47",
    "BigGraph": [
        {
            "type": "line",
            "data": {
                "datasets": [
                    {
                        "data": [
                            {
                                "x": 21,
                                "y": "2101.61"
                            },
                            {
                                "x": 22,
                                "y": "2122.62"
                            },
                            {
                                "x": 23,
                                "y": "2122.62"
                            },
                            {
                                "x": 24,
                                "y": "2143.85"
                            },
                            {
                                "x": 25,
                                "y": "2165.29"
                            },
                            {
                                "x": 26,
                                "y": "2165.29"
                            },
                            {
                                "x": 27,
                                "y": "2208.59"
                            },
                            {
                                "x": 28,
                                "y": "2252.77"
                            },
                            {
                                "x": 29,
                                "y": "2252.77"
                            },
                            {
                                "x": 30,
                                "y": "2275.29"
                            },
                            {
                                "x": 31,
                                "y": "2275.29"
                            },
                            {
                                "x": 32,
                                "y": "2275.29"
                            },
                            {
                                "x": 33,
                                "y": "2298.05"
                            },
                            {
                                "x": 34,
                                "y": "2298.05"
                            },
                            {
                                "x": 35,
                                "y": "2321.03"
                            },
                            {
                                "x": 36,
                                "y": "2321.03"
                            },
                            {
                                "x": 37,
                                "y": "2344.24"
                            },
                            {
                                "x": 38,
                                "y": "2367.68"
                            },
                            {
                                "x": 39,
                                "y": "2415.03"
                            },
                            {
                                "x": 40,
                                "y": "2415.03"
                            },
                            {
                                "x": 41,
                                "y": "2439.18"
                            },
                            {
                                "x": 42,
                                "y": "2463.58"
                            },
                            {
                                "x": 43,
                                "y": "2512.85"
                            },
                            {
                                "x": 44,
                                "y": "2563.10"
                            },
                            {
                                "x": 45,
                                "y": "2588.74"
                            },
                            {
                                "x": 46,
                                "y": "2614.62"
                            },
                            {
                                "x": 47,
                                "y": "2640.77"
                            },
                            {
                                "x": 48,
                                "y": "2693.58"
                            },
                            {
                                "x": 49,
                                "y": "2747.46"
                            },
                            {
                                "x": 50,
                                "y": "2802.41"
                            },
                            {
                                "x": 51,
                                "y": "2802.41"
                            },
                            {
                                "x": 52,
                                "y": "2858.45"
                            },
                            {
                                "x": 53,
                                "y": "2858.45"
                            },
                            {
                                "x": 54,
                                "y": "2858.45"
                            },
                            {
                                "x": 55,
                                "y": "2915.62"
                            },
                            {
                                "x": 56,
                                "y": "2915.62"
                            },
                            {
                                "x": 57,
                                "y": "2944.78"
                            },
                            {
                                "x": 58,
                                "y": "2944.78"
                            },
                            {
                                "x": 59,
                                "y": "3003.67"
                            },
                            {
                                "x": 60,
                                "y": "3003.67"
                            },
                            {
                                "x": 61,
                                "y": "3003.67"
                            },
                            {
                                "x": 62,
                                "y": "3063.75"
                            },
                            {
                                "x": 63,
                                "y": "3063.75"
                            },
                            {
                                "x": 64,
                                "y": "3094.39"
                            },
                            {
                                "x": 65,
                                "y": "3094.39"
                            },
                            {
                                "x": 66,
                                "y": "3125.33"
                            },
                            {
                                "x": 67,
                                "y": "3187.84"
                            }
                        ],
                        "label": "Salaire Brut",
                        "borderColor": "#3e95cd",
                        "fill": false,
                        "lineTension": 0
                    },
                    {
                        "data": [
                            {
                                "x": 21,
                                "y": "471.00"
                            },
                            {
                                "x": 22,
                                "y": "476.00"
                            },
                            {
                                "x": 23,
                                "y": "476.00"
                            },
                            {
                                "x": 24,
                                "y": "481.00"
                            },
                            {
                                "x": 25,
                                "y": "485.00"
                            },
                            {
                                "x": 26,
                                "y": "485.00"
                            },
                            {
                                "x": 27,
                                "y": "495.00"
                            },
                            {
                                "x": 28,
                                "y": "505.00"
                            },
                            {
                                "x": 29,
                                "y": "505.00"
                            },
                            {
                                "x": 30,
                                "y": "574.00"
                            },
                            {
                                "x": 31,
                                "y": "574.00"
                            },
                            {
                                "x": 32,
                                "y": "438.00"
                            },
                            {
                                "x": 33,
                                "y": "442.00"
                            },
                            {
                                "x": 34,
                                "y": "442.00"
                            },
                            {
                                "x": 35,
                                "y": "446.00"
                            },
                            {
                                "x": 36,
                                "y": "417.00"
                            },
                            {
                                "x": 37,
                                "y": "421.00"
                            },
                            {
                                "x": 38,
                                "y": "425.00"
                            },
                            {
                                "x": 39,
                                "y": "434.00"
                            },
                            {
                                "x": 40,
                                "y": "434.00"
                            },
                            {
                                "x": 41,
                                "y": "567.00"
                            },
                            {
                                "x": 42,
                                "y": "572.00"
                            },
                            {
                                "x": 43,
                                "y": "584.00"
                            },
                            {
                                "x": 44,
                                "y": "595.00"
                            },
                            {
                                "x": 45,
                                "y": "467.00"
                            },
                            {
                                "x": 46,
                                "y": "472.00"
                            },
                            {
                                "x": 47,
                                "y": "477.00"
                            },
                            {
                                "x": 48,
                                "y": "486.00"
                            },
                            {
                                "x": 49,
                                "y": "496.00"
                            },
                            {
                                "x": 50,
                                "y": "506.00"
                            },
                            {
                                "x": 51,
                                "y": "506.00"
                            },
                            {
                                "x": 52,
                                "y": "671.00"
                            },
                            {
                                "x": 53,
                                "y": "671.00"
                            },
                            {
                                "x": 54,
                                "y": "671.00"
                            },
                            {
                                "x": 55,
                                "y": "685.00"
                            },
                            {
                                "x": 56,
                                "y": "685.00"
                            },
                            {
                                "x": 57,
                                "y": "691.00"
                            },
                            {
                                "x": 58,
                                "y": "691.00"
                            },
                            {
                                "x": 59,
                                "y": "705.00"
                            },
                            {
                                "x": 60,
                                "y": "705.00"
                            },
                            {
                                "x": 61,
                                "y": "705.00"
                            },
                            {
                                "x": 62,
                                "y": "719.00"
                            },
                            {
                                "x": 63,
                                "y": "719.00"
                            },
                            {
                                "x": 64,
                                "y": "727.00"
                            },
                            {
                                "x": 65,
                                "y": "727.00"
                            },
                            {
                                "x": 66,
                                "y": "734.00"
                            },
                            {
                                "x": 67,
                                "y": "749.00"
                            }
                        ],
                        "label": "Points cotis\u00e9s",
                        "borderColor": "#ff0000",
                        "fill": false,
                        "lineTension": 0.25
                    },
                    {
                        "data": [
                            {
                                "x": 21,
                                "y": 1345
                            },
                            {
                                "x": 22,
                                "y": 1345
                            },
                            {
                                "x": 23,
                                "y": 1345
                            },
                            {
                                "x": 24,
                                "y": 1345
                            },
                            {
                                "x": 25,
                                "y": 1345
                            },
                            {
                                "x": 26,
                                "y": 1345
                            },
                            {
                                "x": 27,
                                "y": 1345
                            },
                            {
                                "x": 28,
                                "y": 1345
                            },
                            {
                                "x": 29,
                                "y": 1345
                            },
                            {
                                "x": 30,
                                "y": 1513
                            },
                            {
                                "x": 31,
                                "y": 1513
                            },
                            {
                                "x": 32,
                                "y": 1154
                            },
                            {
                                "x": 33,
                                "y": 1154
                            },
                            {
                                "x": 34,
                                "y": 1154
                            },
                            {
                                "x": 35,
                                "y": 1154
                            },
                            {
                                "x": 36,
                                "y": 1078
                            },
                            {
                                "x": 37,
                                "y": 1078
                            },
                            {
                                "x": 38,
                                "y": 1078
                            },
                            {
                                "x": 39,
                                "y": 1078
                            },
                            {
                                "x": 40,
                                "y": 1078
                            },
                            {
                                "x": 41,
                                "y": 1393
                            },
                            {
                                "x": 42,
                                "y": 1393
                            },
                            {
                                "x": 43,
                                "y": 1393
                            },
                            {
                                "x": 44,
                                "y": 1393
                            },
                            {
                                "x": 45,
                                "y": 1083
                            },
                            {
                                "x": 46,
                                "y": 1083
                            },
                            {
                                "x": 47,
                                "y": 1083
                            },
                            {
                                "x": 48,
                                "y": 1083
                            },
                            {
                                "x": 49,
                                "y": 1083
                            },
                            {
                                "x": 50,
                                "y": 1083
                            },
                            {
                                "x": 51,
                                "y": 1083
                            },
                            {
                                "x": 52,
                                "y": 1408
                            },
                            {
                                "x": 53,
                                "y": 1408
                            },
                            {
                                "x": 54,
                                "y": 1408
                            },
                            {
                                "x": 55,
                                "y": 1408
                            },
                            {
                                "x": 56,
                                "y": 1408
                            },
                            {
                                "x": 57,
                                "y": 1408
                            },
                            {
                                "x": 58,
                                "y": 1408
                            },
                            {
                                "x": 59,
                                "y": 1408
                            },
                            {
                                "x": 60,
                                "y": 1408
                            },
                            {
                                "x": 61,
                                "y": 1408
                            },
                            {
                                "x": 62,
                                "y": 1408
                            },
                            {
                                "x": 63,
                                "y": 1408
                            },
                            {
                                "x": 64,
                                "y": 1408
                            },
                            {
                                "x": 65,
                                "y": 1408
                            },
                            {
                                "x": 66,
                                "y": 1408
                            },
                            {
                                "x": 67,
                                "y": 1408
                            }
                        ],
                        "label": "Nombre d'heure dans l'ann\u00e9e",
                        "borderColor": "green",
                        "fill": false,
                        "lineTension": 0.25
                    }
                ]
            },
            "options": {
                "title": {
                    "display": true,
                    "text": "Carri\u00e8re"
                },
                "scales": {
                    "xAxes": [
                        {
                            "type": "linear"
                        }
                    ]
                }
            }
        }
    ],
    "LittleGraph": [
        {
            "type": "line",
            "data": {
                "datasets": [
                    {
                        "data": [
                            {
                                "x": 21,
                                "y": 0
                            },
                            {
                                "x": 22,
                                "y": 471
                            },
                            {
                                "x": 23,
                                "y": 947
                            },
                            {
                                "x": 24,
                                "y": 1423
                            },
                            {
                                "x": 25,
                                "y": 1904
                            },
                            {
                                "x": 26,
                                "y": 2389
                            },
                            {
                                "x": 27,
                                "y": 2874
                            },
                            {
                                "x": 28,
                                "y": 3369
                            },
                            {
                                "x": 29,
                                "y": 3874
                            },
                            {
                                "x": 30,
                                "y": 4379
                            },
                            {
                                "x": 31,
                                "y": 4953
                            },
                            {
                                "x": 32,
                                "y": 5527
                            },
                            {
                                "x": 33,
                                "y": 5965
                            },
                            {
                                "x": 34,
                                "y": 6407
                            },
                            {
                                "x": 35,
                                "y": 6849
                            },
                            {
                                "x": 36,
                                "y": 7295
                            },
                            {
                                "x": 37,
                                "y": 7712
                            },
                            {
                                "x": 38,
                                "y": 8133
                            },
                            {
                                "x": 39,
                                "y": 8558
                            },
                            {
                                "x": 40,
                                "y": 8992
                            },
                            {
                                "x": 41,
                                "y": 9426
                            },
                            {
                                "x": 42,
                                "y": 9993
                            },
                            {
                                "x": 43,
                                "y": 10565
                            },
                            {
                                "x": 44,
                                "y": 11149
                            },
                            {
                                "x": 45,
                                "y": 11744
                            },
                            {
                                "x": 46,
                                "y": 12211
                            },
                            {
                                "x": 47,
                                "y": 12683
                            },
                            {
                                "x": 48,
                                "y": 13160
                            },
                            {
                                "x": 49,
                                "y": 13646
                            },
                            {
                                "x": 50,
                                "y": 14142
                            },
                            {
                                "x": 51,
                                "y": 14648
                            },
                            {
                                "x": 52,
                                "y": 15154
                            },
                            {
                                "x": 53,
                                "y": 15825
                            },
                            {
                                "x": 54,
                                "y": 16496
                            },
                            {
                                "x": 55,
                                "y": 17167
                            },
                            {
                                "x": 56,
                                "y": 17852
                            },
                            {
                                "x": 57,
                                "y": 18537
                            },
                            {
                                "x": 58,
                                "y": 19228
                            },
                            {
                                "x": 59,
                                "y": 19919
                            },
                            {
                                "x": 60,
                                "y": 20624
                            },
                            {
                                "x": 61,
                                "y": 21329
                            },
                            {
                                "x": 62,
                                "y": 22034
                            },
                            {
                                "x": 63,
                                "y": 22753
                            },
                            {
                                "x": 64,
                                "y": 23472
                            },
                            {
                                "x": 65,
                                "y": 24199
                            },
                            {
                                "x": 66,
                                "y": 24926
                            },
                            {
                                "x": 67,
                                "y": 25660
                            }
                        ],
                        "label": "Cumul Points",
                        "borderColor": "#aa0000",
                        "fill": false,
                        "lineTension": 0
                    }
                ]
            },
            "options": {
                "title": {
                    "display": true,
                    "text": "Cotisations"
                },
                "scales": {
                    "xAxes": [
                        {
                            "type": "linear"
                        }
                    ]
                }
            }
        },
        {
            "type": "line",
            "data": {
                "datasets": [
                    {
                        "data": [
                            {
                                "x": 62,
                                "y": "908.90"
                            },
                            {
                                "x": 63,
                                "y": "990.70"
                            },
                            {
                                "x": 64,
                                "y": "1987.39"
                            },
                            {
                                "x": 65,
                                "y": "2007.26"
                            },
                            {
                                "x": 66,
                                "y": "2027.33"
                            },
                            {
                                "x": 67,
                                "y": "2047.61"
                            }
                        ],
                        "label": "Pension Nouveau Syst\u00e8me",
                        "borderColor": "#00aa00",
                        "fill": false,
                        "lineTension": 0
                    },
                    {
                        "data": [
                            {
                                "x": 62,
                                "y": "1478.25"
                            },
                            {
                                "x": 63,
                                "y": "1576.24"
                            },
                            {
                                "x": 64,
                                "y": "1675.51"
                            },
                            {
                                "x": 65,
                                "y": "1776.40"
                            },
                            {
                                "x": 66,
                                "y": "1879.11"
                            },
                            {
                                "x": 67,
                                "y": "1984.51"
                            }
                        ],
                        "label": "Pension Syst\u00e8me Actuel",
                        "borderColor": "#0000aa",
                        "fill": false,
                        "lineTension": 0
                    },
                    {
                        "data": [
                            {
                                "x": 62,
                                "y": 2292.032019104253
                            },
                            {
                                "x": 63,
                                "y": 2314.9523392952956
                            },
                            {
                                "x": 64,
                                "y": 2338.1018626882483
                            },
                            {
                                "x": 65,
                                "y": 2361.4828813151307
                            },
                            {
                                "x": 66,
                                "y": 2385.097710128282
                            },
                            {
                                "x": 67,
                                "y": 2408.948687229565
                            }
                        ],
                        "label": "SMIC",
                        "borderColor": "red",
                        "fill": false,
                        "lineTension": 0
                    }
                ]
            },
            "options": {
                "title": {
                    "display": true,
                    "text": "Pension"
                },
                "scales": {
                    "xAxes": [
                        {
                            "type": "linear"
                        }
                    ]
                }
            }
        }
    ]
}