{
    "StartAge": 16,
    "StartSalary": 10000.0,
    "CotisationTime": "47 - 52",
    "BigGraph": [
        {
            "type": "line",
            "data": {
                "datasets": [
                    {
                        "data": [
                            {
                                "x": 16,
                                "y": "10000.00"
                            },
                            {
                                "x": 17,
                                "y": "10100.00"
                            },
                            {
                                "x": 18,
                                "y": "10201.00"
                            },
                            {
                                "x": 19,
                                "y": "10303.01"
                            },
                            {
                                "x": 20,
                                "y": "10406.04"
                            },
                            {
                                "x": 21,
                                "y": "10510.10"
                            },
                            {
                                "x": 22,
                                "y": "10615.20"
                            },
                            {
                                "x": 23,
                                "y": "10721.35"
                            },
                            {
                                "x": 24,
                                "y": "10828.57"
                            },
                            {
                                "x": 25,
                                "y": "10936.85"
                            },
                            {
                                "x": 26,
                                "y": "11046.22"
                            },
                            {
                                "x": 27,
                                "y": "11156.68"
                            },
                            {
                                "x": 28,
                                "y": "11268.25"
                            },
                            {
                                "x": 29,
                                "y": "11380.93"
                            },
                            {
                                "x": 30,
                                "y": "11494.74"
                            },
                            {
                                "x": 31,
                                "y": "11609.69"
                            },
                            {
                                "x": 32,
                                "y": "11725.79"
                            },
                            {
                                "x": 33,
                                "y": "11843.04"
                            },
                            {
                                "x": 34,
                                "y": "11961.47"
                            },
                            {
                                "x": 35,
                                "y": "12081.09"
                            },
                            {
                                "x": 36,
                                "y": "12201.90"
                            },
                            {
                                "x": 37,
                                "y": "12323.92"
                            },
                            {
                                "x": 38,
                                "y": "12447.16"
                            },
                            {
                                "x": 39,
                                "y": "12571.63"
                            },
                            {
                                "x": 40,
                                "y": "12697.35"
                            },
                            {
                                "x": 41,
                                "y": "12824.32"
                            },
                            {
                                "x": 42,
                                "y": "12952.56"
                            },
                            {
                                "x": 43,
                                "y": "13082.09"
                            },
                            {
                                "x": 44,
                                "y": "13212.91"
                            },
                            {
                                "x": 45,
                                "y": "13345.04"
                            },
                            {
                                "x": 46,
                                "y": "13478.49"
                            },
                            {
                                "x": 47,
                                "y": "13613.27"
                            },
                            {
                                "x": 48,
                                "y": "13749.41"
                            },
                            {
                                "x": 49,
                                "y": "13886.90"
                            },
                            {
                                "x": 50,
                                "y": "14025.77"
                            },
                            {
                                "x": 51,
                                "y": "14166.03"
                            },
                            {
                                "x": 52,
                                "y": "14307.69"
                            },
                            {
                                "x": 53,
                                "y": "14450.76"
                            },
                            {
                                "x": 54,
                                "y": "14595.27"
                            },
                            {
                                "x": 55,
                                "y": "14741.23"
                            },
                            {
                                "x": 56,
                                "y": "14888.64"
                            },
                            {
                                "x": 57,
                                "y": "15037.52"
                            },
                            {
                                "x": 58,
                                "y": "15187.90"
                            },
                            {
                                "x": 59,
                                "y": "15339.78"
                            },
                            {
                                "x": 60,
                                "y": "15493.18"
                            },
                            {
                                "x": 61,
                                "y": "15648.11"
                            },
                            {
                                "x": 62,
                                "y": "15804.59"
                            },
                            {
                                "x": 63,
                                "y": "15962.63"
                            },
                            {
                                "x": 64,
                                "y": "16122.26"
                            },
                            {
                                "x": 65,
                                "y": "16283.48"
                            },
                            {
                                "x": 66,
                                "y": "16446.32"
                            },
                            {
                                "x": 67,
                                "y": "16610.78"
                            }
                        ],
                        "label": "Salaire Brut",
                        "borderColor": "#3e95cd",
                        "fill": false,
                        "lineTension": 0
                    },
                    {
                        "data": [
                            {
                                "x": 16,
                                "y": "2681.00"
                            },
                            {
                                "x": 17,
                                "y": "2708.00"
                            },
                            {
                                "x": 18,
                                "y": "2735.00"
                            },
                            {
                                "x": 19,
                                "y": "2762.00"
                            },
                            {
                                "x": 20,
                                "y": "2790.00"
                            },
                            {
                                "x": 21,
                                "y": "2818.00"
                            },
                            {
                                "x": 22,
                                "y": "2846.00"
                            },
                            {
                                "x": 23,
                                "y": "2875.00"
                            },
                            {
                                "x": 24,
                                "y": "2903.00"
                            },
                            {
                                "x": 25,
                                "y": "2932.00"
                            },
                            {
                                "x": 26,
                                "y": "2962.00"
                            },
                            {
                                "x": 27,
                                "y": "2991.00"
                            },
                            {
                                "x": 28,
                                "y": "3021.00"
                            },
                            {
                                "x": 29,
                                "y": "3037.00"
                            },
                            {
                                "x": 30,
                                "y": "3037.00"
                            },
                            {
                                "x": 31,
                                "y": "3037.00"
                            },
                            {
                                "x": 32,
                                "y": "3037.00"
                            },
                            {
                                "x": 33,
                                "y": "3037.00"
                            },
                            {
                                "x": 34,
                                "y": "3037.00"
                            },
                            {
                                "x": 35,
                                "y": "3037.00"
                            },
                            {
                                "x": 36,
                                "y": "3037.00"
                            },
                            {
                                "x": 37,
                                "y": "3037.00"
                            },
                            {
                                "x": 38,
                                "y": "3037.00"
                            },
                            {
                                "x": 39,
                                "y": "3037.00"
                            },
                            {
                                "x": 40,
                                "y": "3037.00"
                            },
                            {
                                "x": 41,
                                "y": "3037.00"
                            },
                            {
                                "x": 42,
                                "y": "3037.00"
                            },
                            {
                                "x": 43,
                                "y": "3037.00"
                            },
                            {
                                "x": 44,
                                "y": "3037.00"
                            },
                            {
                                "x": 45,
                                "y": "3037.00"
                            },
                            {
                                "x": 46,
                                "y": "3037.00"
                            },
                            {
                                "x": 47,
                                "y": "3037.00"
                            },
                            {
                                "x": 48,
                                "y": "3037.00"
                            },
                            {
                                "x": 49,
                                "y": "3037.00"
                            },
                            {
                                "x": 50,
                                "y": "3037.00"
                            },
                            {
                                "x": 51,
                                "y": "3037.00"
                            },
                            {
                                "x": 52,
                                "y": "3037.00"
                            },
                            {
                                "x": 53,
                                "y": "3037.00"
                            },
                            {
                                "x": 54,
                                "y": "3037.00"
                            },
                            {
                                "x": 55,
                                "y": "3037.00"
                            },
                            {
                                "x": 56,
                                "y": "3037.00"
                            },
                            {
                                "x": 57,
                                "y": "3037.00"
                            },
                            {
                                "x": 58,
                                "y": "3037.00"
                            },
                            {
                                "x": 59,
                                "y": "3037.00"
                            },
                            {
                                "x": 60,
                                "y": "3037.00"
                            },
                            {
                                "x": 61,
                                "y": "3037.00"
                            },
                            {
                                "x": 62,
                                "y": "3037.00"
                            },
                            {
                                "x": 63,
                                "y": "3037.00"
                            },
                            {
                                "x": 64,
                                "y": "3037.00"
                            },
                            {
                                "x": 65,
                                "y": "3037.00"
                            },
                            {
                                "x": 66,
                                "y": "3037.00"
                            },
                            {
                                "x": 67,
                                "y": "3037.00"
                            }
                        ],
                        "label": "Points cotis\u00e9s",
                        "borderColor": "#ff0000",
                        "fill": false,
                        "lineTension": 0.25
                    },
                    {
                        "data": [
                            {
                                "x": 16,
                                "y": 1607
                            },
                            {
                                "x": 17,
                                "y": 1607
                            },
                            {
                                "x": 18,
                                "y": 1607
                            },
                            {
                                "x": 19,
                                "y": 1607
                            },
                            {
                                "x": 20,
                                "y": 1607
                            },
                            {
                                "x": 21,
                                "y": 1607
                            },
                            {
                                "x": 22,
                                "y": 1607
                            },
                            {
                                "x": 23,
                                "y": 1607
                            },
                            {
                                "x": 24,
                                "y": 1607
                            },
                            {
                                "x": 25,
                                "y": 1607
                            },
                            {
                                "x": 26,
                                "y": 1607
                            },
                            {
                                "x": 27,
                                "y": 1607
                            },
                            {
                                "x": 28,
                                "y": 1607
                            },
                            {
                                "x": 29,
                                "y": 1607
                            },
                            {
                                "x": 30,
                                "y": 1607
                            },
                            {
                                "x": 31,
                                "y": 1607
                            },
                            {
                                "x": 32,
                                "y": 1607
                            },
                            {
                                "x": 33,
                                "y": 1607
                            },
                            {
                                "x": 34,
                                "y": 1607
                            },
                            {
                                "x": 35,
                                "y": 1607
                            },
                            {
                                "x": 36,
                                "y": 1607
                            },
                            {
                                "x": 37,
                                "y": 1607
                            },
                            {
                                "x": 38,
                                "y": 1607
                            },
                            {
                                "x": 39,
                                "y": 1607
                            },
                            {
                                "x": 40,
                                "y": 1607
                            },
                            {
                                "x": 41,
                                "y": 1607
                            },
                            {
                                "x": 42,
                                "y": 1607
                            },
                            {
                                "x": 43,
                                "y": 1607
                            },
                            {
                                "x": 44,
                                "y": 1607
                            },
                            {
                                "x": 45,
                                "y": 1607
                            },
                            {
                                "x": 46,
                                "y": 1607
                            },
                            {
                                "x": 47,
                                "y": 1607
                            },
                            {
                                "x": 48,
                                "y": 1607
                            },
                            {
                                "x": 49,
                                "y": 1607
                            },
                            {
                                "x": 50,
                                "y": 1607
                            },
                            {
                                "x": 51,
                                "y": 1607
                            },
                            {
                                "x": 52,
                                "y": 1607
                            },
                            {
                                "x": 53,
                                "y": 1607
                            },
                            {
                                "x": 54,
                                "y": 1607
                            },
                            {
                                "x": 55,
                                "y": 1607
                            },
                            {
                                "x": 56,
                                "y": 1607
                            },
                            {
                                "x": 57,
                                "y": 1607
                            },
                            {
                                "x": 58,
                                "y": 1607
                            },
                            {
                                "x": 59,
                                "y": 1607
                            },
                            {
                                "x": 60,
                                "y": 1607
                            },
                            {
                                "x": 61,
                                "y": 1607
                            },
                            {
                                "x": 62,
                                "y": 1607
                            },
                            {
                                "x": 63,
                                "y": 1607
                            },
                            {
                                "x": 64,
                                "y": 1607
                            },
                            {
                                "x": 65,
                                "y": 1607
                            },
                            {
                                "x": 66,
                                "y": 1607
                            },
                            {
                                "x": 67,
                                "y": 1607
                            }
                        ],
                        "label": "Nombre d'heure dans l'ann\u00e9e",
                        "borderColor": "green",
                        "fill": false,
                        "lineTension": 0.25
                    }
                ]
            },
            "options": {
                "title": {
                    "display": true,
                    "text": "Carri\u00e8re"
                },
                "scales": {
                    "xAxes": [
                        {
                            "type": "linear"
                        }
                    ]
                }
            }
        }
    ],
    "LittleGraph": [
        {
            "type": "line",
            "data": {
                "datasets": [
                    {
                        "data": [
                            {
                                "x": 16,
                                "y": 0
                            },
                            {
                                "x": 17,
                                "y": 2681
                            },
                            {
                                "x": 18,
                                "y": 5389
                            },
                            {
                                "x": 19,
                                "y": 8124
                            },
                            {
                                "x": 20,
                                "y": 10886
                            },
                            {
                                "x": 21,
                                "y": 13676
                            },
                            {
                                "x": 22,
                                "y": 16494
                            },
                            {
                                "x": 23,
                                "y": 19340
                            },
                            {
                                "x": 24,
                                "y": 22215
                            },
                            {
                                "x": 25,
                                "y": 25118
                            },
                            {
                                "x": 26,
                                "y": 28050
                            },
                            {
                                "x": 27,
                                "y": 31012
                            },
                            {
                                "x": 28,
                                "y": 34003
                            },
                            {
                                "x": 29,
                                "y": 37024
                            },
                            {
                                "x": 30,
                                "y": 40061
                            },
                            {
                                "x": 31,
                                "y": 43098
                            },
                            {
                                "x": 32,
                                "y": 46135
                            },
                            {
                                "x": 33,
                                "y": 49172
                            },
                            {
                                "x": 34,
                                "y": 52209
                            },
                            {
                                "x": 35,
                                "y": 55246
                            },
                            {
                                "x": 36,
                                "y": 58283
                            },
                            {
                                "x": 37,
                                "y": 61320
                            },
                            {
                                "x": 38,
                                "y": 64357
                            },
                            {
                                "x": 39,
                                "y": 67394
                            },
                            {
                                "x": 40,
                                "y": 70431
                            },
                            {
                                "x": 41,
                                "y": 73468
                            },
                            {
                                "x": 42,
                                "y": 76505
                            },
                            {
                                "x": 43,
                                "y": 79542
                            },
                            {
                                "x": 44,
                                "y": 82579
                            },
                            {
                                "x": 45,
                                "y": 85616
                            },
                            {
                                "x": 46,
                                "y": 88653
                            },
                            {
                                "x": 47,
                                "y": 91690
                            },
                            {
                                "x": 48,
                                "y": 94727
                            },
                            {
                                "x": 49,
                                "y": 97764
                            },
                            {
                                "x": 50,
                                "y": 100801
                            },
                            {
                                "x": 51,
                                "y": 103838
                            },
                            {
                                "x": 52,
                                "y": 106875
                            },
                            {
                                "x": 53,
                                "y": 109912
                            },
                            {
                                "x": 54,
                                "y": 112949
                            },
                            {
                                "x": 55,
                                "y": 115986
                            },
                            {
                                "x": 56,
                                "y": 119023
                            },
                            {
                                "x": 57,
                                "y": 122060
                            },
                            {
                                "x": 58,
                                "y": 125097
                            },
                            {
                                "x": 59,
                                "y": 128134
                            },
                            {
                                "x": 60,
                                "y": 131171
                            },
                            {
                                "x": 61,
                                "y": 134208
                            },
                            {
                                "x": 62,
                                "y": 137245
                            },
                            {
                                "x": 63,
                                "y": 140282
                            },
                            {
                                "x": 64,
                                "y": 143319
                            },
                            {
                                "x": 65,
                                "y": 146356
                            },
                            {
                                "x": 66,
                                "y": 149393
                            },
                            {
                                "x": 67,
                                "y": 152430
                            }
                        ],
                        "label": "Cumul Points",
                        "borderColor": "#aa0000",
                        "fill": false,
                        "lineTension": 0
                    }
                ]
            },
            "options": {
                "title": {
                    "display": true,
                    "text": "Cotisations"
                },
                "scales": {
                    "xAxes": [
                        {
                            "type": "linear"
                        }
                    ]
                }
            }
        },
        {
            "type": "line",
            "data": {
                "datasets": [
                    {
                        "data": [
                            {
                                "x": 62,
                                "y": "5661.36"
                            },
                            {
                                "x": 63,
                                "y": "6108.11"
                            },
                            {
                                "x": 64,
                                "y": "6568.79"
                            },
                            {
                                "x": 65,
                                "y": "7043.38"
                            },
                            {
                                "x": 66,
                                "y": "7531.90"
                            },
                            {
                                "x": 67,
                                "y": "8034.33"
                            }
                        ],
                        "label": "Pension Nouveau Syst\u00e8me",
                        "borderColor": "#00aa00",
                        "fill": false,
                        "lineTension": 0
                    },
                    {
                        "data": [
                            {
                                "x": 62,
                                "y": "9702.71"
                            },
                            {
                                "x": 63,
                                "y": "10225.82"
                            },
                            {
                                "x": 64,
                                "y": "10758.41"
                            },
                            {
                                "x": 65,
                                "y": "11300.63"
                            },
                            {
                                "x": 66,
                                "y": "11852.63"
                            },
                            {
                                "x": 67,
                                "y": "12414.53"
                            }
                        ],
                        "label": "Pension Syst\u00e8me Actuel",
                        "borderColor": "#0000aa",
                        "fill": false,
                        "lineTension": 0
                    },
                    {
                        "data": [
                            {
                                "x": 62,
                                "y": 2408.948687229565
                            },
                            {
                                "x": 63,
                                "y": 2433.0381741018605
                            },
                            {
                                "x": 64,
                                "y": 2457.3685558428792
                            },
                            {
                                "x": 65,
                                "y": 2481.942241401308
                            },
                            {
                                "x": 66,
                                "y": 2506.761663815321
                            },
                            {
                                "x": 67,
                                "y": 2531.829280453474
                            }
                        ],
                        "label": "SMIC",
                        "borderColor": "red",
                        "fill": false,
                        "lineTension": 0
                    }
                ]
            },
            "options": {
                "title": {
                    "display": true,
                    "text": "Pension"
                },
                "scales": {
                    "xAxes": [
                        {
                            "type": "linear"
                        }
                    ]
                }
            }
        }
    ]
}