{
    "StartAge": 23,
    "StartSalary": 1539.45,
    "CotisationTime": "40 - 45",
    "BigGraph": [
        {
            "type": "line",
            "data": {
                "datasets": [
                    {
                        "data": [
                            {
                                "x": 23,
                                "y": "1539.45"
                            },
                            {
                                "x": 24,
                                "y": "1554.84"
                            },
                            {
                                "x": 25,
                                "y": "1570.39"
                            },
                            {
                                "x": 26,
                                "y": "1586.10"
                            },
                            {
                                "x": 27,
                                "y": "1601.96"
                            },
                            {
                                "x": 28,
                                "y": "1617.98"
                            },
                            {
                                "x": 29,
                                "y": "1634.16"
                            },
                            {
                                "x": 30,
                                "y": "1650.50"
                            },
                            {
                                "x": 31,
                                "y": "1667.00"
                            },
                            {
                                "x": 32,
                                "y": "1683.67"
                            },
                            {
                                "x": 33,
                                "y": "1700.51"
                            },
                            {
                                "x": 34,
                                "y": "1717.52"
                            },
                            {
                                "x": 35,
                                "y": "1734.69"
                            },
                            {
                                "x": 36,
                                "y": "1752.04"
                            },
                            {
                                "x": 37,
                                "y": "1769.56"
                            },
                            {
                                "x": 38,
                                "y": "1787.25"
                            },
                            {
                                "x": 39,
                                "y": "1805.13"
                            },
                            {
                                "x": 40,
                                "y": "1823.18"
                            },
                            {
                                "x": 41,
                                "y": "1841.41"
                            },
                            {
                                "x": 42,
                                "y": "1859.82"
                            },
                            {
                                "x": 43,
                                "y": "1878.42"
                            },
                            {
                                "x": 44,
                                "y": "1897.21"
                            },
                            {
                                "x": 45,
                                "y": "1916.18"
                            },
                            {
                                "x": 46,
                                "y": "1935.34"
                            },
                            {
                                "x": 47,
                                "y": "1954.69"
                            },
                            {
                                "x": 48,
                                "y": "1974.24"
                            },
                            {
                                "x": 49,
                                "y": "1993.98"
                            },
                            {
                                "x": 50,
                                "y": "2013.92"
                            },
                            {
                                "x": 51,
                                "y": "2034.06"
                            },
                            {
                                "x": 52,
                                "y": "2054.40"
                            },
                            {
                                "x": 53,
                                "y": "2074.95"
                            },
                            {
                                "x": 54,
                                "y": "2095.70"
                            },
                            {
                                "x": 55,
                                "y": "2116.65"
                            },
                            {
                                "x": 56,
                                "y": "2137.82"
                            },
                            {
                                "x": 57,
                                "y": "2159.20"
                            },
                            {
                                "x": 58,
                                "y": "2180.79"
                            },
                            {
                                "x": 59,
                                "y": "2202.60"
                            },
                            {
                                "x": 60,
                                "y": "2224.62"
                            },
                            {
                                "x": 61,
                                "y": "2246.87"
                            },
                            {
                                "x": 62,
                                "y": "2269.34"
                            },
                            {
                                "x": 63,
                                "y": "2292.03"
                            },
                            {
                                "x": 64,
                                "y": "2314.95"
                            },
                            {
                                "x": 65,
                                "y": "2338.10"
                            },
                            {
                                "x": 66,
                                "y": "2361.48"
                            },
                            {
                                "x": 67,
                                "y": "2385.10"
                            }
                        ],
                        "label": "Salaire Brut",
                        "borderColor": "#3e95cd",
                        "fill": false,
                        "lineTension": 0
                    },
                    {
                        "data": [
                            {
                                "x": 23,
                                "y": "412.00"
                            },
                            {
                                "x": 24,
                                "y": "416.00"
                            },
                            {
                                "x": 25,
                                "y": "421.00"
                            },
                            {
                                "x": 26,
                                "y": "425.00"
                            },
                            {
                                "x": 27,
                                "y": "429.00"
                            },
                            {
                                "x": 28,
                                "y": "433.00"
                            },
                            {
                                "x": 29,
                                "y": "438.00"
                            },
                            {
                                "x": 30,
                                "y": "442.00"
                            },
                            {
                                "x": 31,
                                "y": "447.00"
                            },
                            {
                                "x": 32,
                                "y": "451.00"
                            },
                            {
                                "x": 33,
                                "y": "456.00"
                            },
                            {
                                "x": 34,
                                "y": "460.00"
                            },
                            {
                                "x": 35,
                                "y": "465.00"
                            },
                            {
                                "x": 36,
                                "y": "469.00"
                            },
                            {
                                "x": 37,
                                "y": "474.00"
                            },
                            {
                                "x": 38,
                                "y": "479.00"
                            },
                            {
                                "x": 39,
                                "y": "484.00"
                            },
                            {
                                "x": 40,
                                "y": "488.00"
                            },
                            {
                                "x": 41,
                                "y": "493.00"
                            },
                            {
                                "x": 42,
                                "y": "498.00"
                            },
                            {
                                "x": 43,
                                "y": "503.00"
                            },
                            {
                                "x": 44,
                                "y": "508.00"
                            },
                            {
                                "x": 45,
                                "y": "513.00"
                            },
                            {
                                "x": 46,
                                "y": "518.00"
                            },
                            {
                                "x": 47,
                                "y": "524.00"
                            },
                            {
                                "x": 48,
                                "y": "529.00"
                            },
                            {
                                "x": 49,
                                "y": "534.00"
                            },
                            {
                                "x": 50,
                                "y": "540.00"
                            },
                            {
                                "x": 51,
                                "y": "545.00"
                            },
                            {
                                "x": 52,
                                "y": "550.00"
                            },
                            {
                                "x": 53,
                                "y": "556.00"
                            },
                            {
                                "x": 54,
                                "y": "562.00"
                            },
                            {
                                "x": 55,
                                "y": "567.00"
                            },
                            {
                                "x": 56,
                                "y": "573.00"
                            },
                            {
                                "x": 57,
                                "y": "579.00"
                            },
                            {
                                "x": 58,
                                "y": "584.00"
                            },
                            {
                                "x": 59,
                                "y": "590.00"
                            },
                            {
                                "x": 60,
                                "y": "596.00"
                            },
                            {
                                "x": 61,
                                "y": "602.00"
                            },
                            {
                                "x": 62,
                                "y": "608.00"
                            },
                            {
                                "x": 63,
                                "y": "614.00"
                            },
                            {
                                "x": 64,
                                "y": "620.00"
                            },
                            {
                                "x": 65,
                                "y": "627.00"
                            },
                            {
                                "x": 66,
                                "y": "633.00"
                            },
                            {
                                "x": 67,
                                "y": "639.00"
                            }
                        ],
                        "label": "Points cotis\u00e9s",
                        "borderColor": "#ff0000",
                        "fill": false,
                        "lineTension": 0.25
                    },
                    {
                        "data": [
                            {
                                "x": 23,
                                "y": 1607
                            },
                            {
                                "x": 24,
                                "y": 1607
                            },
                            {
                                "x": 25,
                                "y": 1607
                            },
                            {
                                "x": 26,
                                "y": 1607
                            },
                            {
                                "x": 27,
                                "y": 1607
                            },
                            {
                                "x": 28,
                                "y": 1607
                            },
                            {
                                "x": 29,
                                "y": 1607
                            },
                            {
                                "x": 30,
                                "y": 1607
                            },
                            {
                                "x": 31,
                                "y": 1607
                            },
                            {
                                "x": 32,
                                "y": 1607
                            },
                            {
                                "x": 33,
                                "y": 1607
                            },
                            {
                                "x": 34,
                                "y": 1607
                            },
                            {
                                "x": 35,
                                "y": 1607
                            },
                            {
                                "x": 36,
                                "y": 1607
                            },
                            {
                                "x": 37,
                                "y": 1607
                            },
                            {
                                "x": 38,
                                "y": 1607
                            },
                            {
                                "x": 39,
                                "y": 1607
                            },
                            {
                                "x": 40,
                                "y": 1607
                            },
                            {
                                "x": 41,
                                "y": 1607
                            },
                            {
                                "x": 42,
                                "y": 1607
                            },
                            {
                                "x": 43,
                                "y": 1607
                            },
                            {
                                "x": 44,
                                "y": 1607
                            },
                            {
                                "x": 45,
                                "y": 1607
                            },
                            {
                                "x": 46,
                                "y": 1607
                            },
                            {
                                "x": 47,
                                "y": 1607
                            },
                            {
                                "x": 48,
                                "y": 1607
                            },
                            {
                                "x": 49,
                                "y": 1607
                            },
                            {
                                "x": 50,
                                "y": 1607
                            },
                            {
                                "x": 51,
                                "y": 1607
                            },
                            {
                                "x": 52,
                                "y": 1607
                            },
                            {
                                "x": 53,
                                "y": 1607
                            },
                            {
                                "x": 54,
                                "y": 1607
                            },
                            {
                                "x": 55,
                                "y": 1607
                            },
                            {
                                "x": 56,
                                "y": 1607
                            },
                            {
                                "x": 57,
                                "y": 1607
                            },
                            {
                                "x": 58,
                                "y": 1607
                            },
                            {
                                "x": 59,
                                "y": 1607
                            },
                            {
                                "x": 60,
                                "y": 1607
                            },
                            {
                                "x": 61,
                                "y": 1607
                            },
                            {
                                "x": 62,
                                "y": 1607
                            },
                            {
                                "x": 63,
                                "y": 1607
                            },
                            {
                                "x": 64,
                                "y": 1607
                            },
                            {
                                "x": 65,
                                "y": 1607
                            },
                            {
                                "x": 66,
                                "y": 1607
                            },
                            {
                                "x": 67,
                                "y": 1607
                            }
                        ],
                        "label": "Nombre d'heure dans l'ann\u00e9e",
                        "borderColor": "green",
                        "fill": false,
                        "lineTension": 0.25
                    }
                ]
            },
            "options": {
                "title": {
                    "display": true,
                    "text": "Carri\u00e8re"
                },
                "scales": {
                    "xAxes": [
                        {
                            "type": "linear"
                        }
                    ]
                }
            }
        }
    ],
    "LittleGraph": [
        {
            "type": "line",
            "data": {
                "datasets": [
                    {
                        "data": [
                            {
                                "x": 23,
                                "y": 0
                            },
                            {
                                "x": 24,
                                "y": 412
                            },
                            {
                                "x": 25,
                                "y": 828
                            },
                            {
                                "x": 26,
                                "y": 1249
                            },
                            {
                                "x": 27,
                                "y": 1674
                            },
                            {
                                "x": 28,
                                "y": 2103
                            },
                            {
                                "x": 29,
                                "y": 2536
                            },
                            {
                                "x": 30,
                                "y": 2974
                            },
                            {
                                "x": 31,
                                "y": 3416
                            },
                            {
                                "x": 32,
                                "y": 3863
                            },
                            {
                                "x": 33,
                                "y": 4314
                            },
                            {
                                "x": 34,
                                "y": 4770
                            },
                            {
                                "x": 35,
                                "y": 5230
                            },
                            {
                                "x": 36,
                                "y": 5695
                            },
                            {
                                "x": 37,
                                "y": 6164
                            },
                            {
                                "x": 38,
                                "y": 6638
                            },
                            {
                                "x": 39,
                                "y": 7117
                            },
                            {
                                "x": 40,
                                "y": 7601
                            },
                            {
                                "x": 41,
                                "y": 8089
                            },
                            {
                                "x": 42,
                                "y": 8582
                            },
                            {
                                "x": 43,
                                "y": 9080
                            },
                            {
                                "x": 44,
                                "y": 9583
                            },
                            {
                                "x": 45,
                                "y": 10091
                            },
                            {
                                "x": 46,
                                "y": 10604
                            },
                            {
                                "x": 47,
                                "y": 11122
                            },
                            {
                                "x": 48,
                                "y": 11646
                            },
                            {
                                "x": 49,
                                "y": 12175
                            },
                            {
                                "x": 50,
                                "y": 12709
                            },
                            {
                                "x": 51,
                                "y": 13249
                            },
                            {
                                "x": 52,
                                "y": 13794
                            },
                            {
                                "x": 53,
                                "y": 14344
                            },
                            {
                                "x": 54,
                                "y": 14900
                            },
                            {
                                "x": 55,
                                "y": 15462
                            },
                            {
                                "x": 56,
                                "y": 16029
                            },
                            {
                                "x": 57,
                                "y": 16602
                            },
                            {
                                "x": 58,
                                "y": 17181
                            },
                            {
                                "x": 59,
                                "y": 17765
                            },
                            {
                                "x": 60,
                                "y": 18355
                            },
                            {
                                "x": 61,
                                "y": 18951
                            },
                            {
                                "x": 62,
                                "y": 19553
                            },
                            {
                                "x": 63,
                                "y": 20161
                            },
                            {
                                "x": 64,
                                "y": 20775
                            },
                            {
                                "x": 65,
                                "y": 21395
                            },
                            {
                                "x": 66,
                                "y": 22022
                            },
                            {
                                "x": 67,
                                "y": 22655
                            }
                        ],
                        "label": "Cumul Points",
                        "borderColor": "#aa0000",
                        "fill": false,
                        "lineTension": 0
                    }
                ]
            },
            "options": {
                "title": {
                    "display": true,
                    "text": "Cotisations"
                },
                "scales": {
                    "xAxes": [
                        {
                            "type": "linear"
                        }
                    ]
                }
            }
        },
        {
            "type": "line",
            "data": {
                "datasets": [
                    {
                        "data": [
                            {
                                "x": 62,
                                "y": "806.56"
                            },
                            {
                                "x": 63,
                                "y": "877.84"
                            },
                            {
                                "x": 64,
                                "y": "952.19"
                            },
                            {
                                "x": 65,
                                "y": "1029.63"
                            },
                            {
                                "x": 66,
                                "y": "1987.39"
                            },
                            {
                                "x": 67,
                                "y": "2007.26"
                            }
                        ],
                        "label": "Pension Nouveau Syst\u00e8me",
                        "borderColor": "#00aa00",
                        "fill": false,
                        "lineTension": 0
                    },
                    {
                        "data": [
                            {
                                "x": 62,
                                "y": "969.17"
                            },
                            {
                                "x": 63,
                                "y": "1040.04"
                            },
                            {
                                "x": 64,
                                "y": "1112.24"
                            },
                            {
                                "x": 65,
                                "y": "1185.77"
                            },
                            {
                                "x": 66,
                                "y": "1260.66"
                            },
                            {
                                "x": 67,
                                "y": "1336.93"
                            }
                        ],
                        "label": "Pension Syst\u00e8me Actuel",
                        "borderColor": "#0000aa",
                        "fill": false,
                        "lineTension": 0
                    },
                    {
                        "data": [
                            {
                                "x": 62,
                                "y": 2246.8699334420676
                            },
                            {
                                "x": 63,
                                "y": 2269.338632776488
                            },
                            {
                                "x": 64,
                                "y": 2292.032019104253
                            },
                            {
                                "x": 65,
                                "y": 2314.9523392952956
                            },
                            {
                                "x": 66,
                                "y": 2338.1018626882483
                            },
                            {
                                "x": 67,
                                "y": 2361.4828813151307
                            }
                        ],
                        "label": "SMIC",
                        "borderColor": "red",
                        "fill": false,
                        "lineTension": 0
                    }
                ]
            },
            "options": {
                "title": {
                    "display": true,
                    "text": "Pension"
                },
                "scales": {
                    "xAxes": [
                        {
                            "type": "linear"
                        }
                    ]
                }
            }
        }
    ]
}