{
    "StartAge": 19,
    "StartSalary": 2040.0,
    "CotisationTime": "44 - 49",
    "BigGraph": [
        {
            "type": "line",
            "data": {
                "datasets": [
                    {
                        "data": [
                            {
                                "x": 19,
                                "y": "2040.00"
                            },
                            {
                                "x": 20,
                                "y": "2080.80"
                            },
                            {
                                "x": 21,
                                "y": "2101.61"
                            },
                            {
                                "x": 22,
                                "y": "2101.61"
                            },
                            {
                                "x": 23,
                                "y": "2101.61"
                            },
                            {
                                "x": 24,
                                "y": "2122.62"
                            },
                            {
                                "x": 25,
                                "y": "2122.62"
                            },
                            {
                                "x": 26,
                                "y": "2165.08"
                            },
                            {
                                "x": 27,
                                "y": "2208.38"
                            },
                            {
                                "x": 28,
                                "y": "2252.55"
                            },
                            {
                                "x": 29,
                                "y": "2275.07"
                            },
                            {
                                "x": 30,
                                "y": "2320.57"
                            },
                            {
                                "x": 31,
                                "y": "2343.78"
                            },
                            {
                                "x": 32,
                                "y": "2343.78"
                            },
                            {
                                "x": 33,
                                "y": "2390.65"
                            },
                            {
                                "x": 34,
                                "y": "2438.47"
                            },
                            {
                                "x": 35,
                                "y": "2438.47"
                            },
                            {
                                "x": 36,
                                "y": "2487.24"
                            },
                            {
                                "x": 37,
                                "y": "2487.24"
                            },
                            {
                                "x": 38,
                                "y": "2512.11"
                            },
                            {
                                "x": 39,
                                "y": "2512.11"
                            },
                            {
                                "x": 40,
                                "y": "2537.23"
                            },
                            {
                                "x": 41,
                                "y": "2562.60"
                            },
                            {
                                "x": 42,
                                "y": "2588.23"
                            },
                            {
                                "x": 43,
                                "y": "2588.23"
                            },
                            {
                                "x": 44,
                                "y": "2588.23"
                            },
                            {
                                "x": 45,
                                "y": "2639.99"
                            },
                            {
                                "x": 46,
                                "y": "2692.79"
                            },
                            {
                                "x": 47,
                                "y": "2719.72"
                            },
                            {
                                "x": 48,
                                "y": "2774.11"
                            },
                            {
                                "x": 49,
                                "y": "2801.86"
                            },
                            {
                                "x": 50,
                                "y": "2801.86"
                            },
                            {
                                "x": 51,
                                "y": "2829.87"
                            },
                            {
                                "x": 52,
                                "y": "2858.17"
                            },
                            {
                                "x": 53,
                                "y": "2915.34"
                            },
                            {
                                "x": 54,
                                "y": "2973.64"
                            },
                            {
                                "x": 55,
                                "y": "3003.38"
                            },
                            {
                                "x": 56,
                                "y": "3003.38"
                            },
                            {
                                "x": 57,
                                "y": "3063.45"
                            },
                            {
                                "x": 58,
                                "y": "3124.72"
                            },
                            {
                                "x": 59,
                                "y": "3155.96"
                            },
                            {
                                "x": 60,
                                "y": "3155.96"
                            },
                            {
                                "x": 61,
                                "y": "3155.96"
                            },
                            {
                                "x": 62,
                                "y": "3219.08"
                            },
                            {
                                "x": 63,
                                "y": "3219.08"
                            },
                            {
                                "x": 64,
                                "y": "3283.46"
                            },
                            {
                                "x": 65,
                                "y": "3349.13"
                            },
                            {
                                "x": 66,
                                "y": "3416.12"
                            },
                            {
                                "x": 67,
                                "y": "3450.28"
                            }
                        ],
                        "label": "Salaire Brut",
                        "borderColor": "#3e95cd",
                        "fill": false,
                        "lineTension": 0
                    },
                    {
                        "data": [
                            {
                                "x": 19,
                                "y": "213.00"
                            },
                            {
                                "x": 20,
                                "y": "218.00"
                            },
                            {
                                "x": 21,
                                "y": "220.00"
                            },
                            {
                                "x": 22,
                                "y": "220.00"
                            },
                            {
                                "x": 23,
                                "y": "220.00"
                            },
                            {
                                "x": 24,
                                "y": "222.00"
                            },
                            {
                                "x": 25,
                                "y": "222.00"
                            },
                            {
                                "x": 26,
                                "y": "226.00"
                            },
                            {
                                "x": 27,
                                "y": "231.00"
                            },
                            {
                                "x": 28,
                                "y": "236.00"
                            },
                            {
                                "x": 29,
                                "y": "238.00"
                            },
                            {
                                "x": 30,
                                "y": "243.00"
                            },
                            {
                                "x": 31,
                                "y": "245.00"
                            },
                            {
                                "x": 32,
                                "y": "245.00"
                            },
                            {
                                "x": 33,
                                "y": "250.00"
                            },
                            {
                                "x": 34,
                                "y": "513.00"
                            },
                            {
                                "x": 35,
                                "y": "513.00"
                            },
                            {
                                "x": 36,
                                "y": "523.00"
                            },
                            {
                                "x": 37,
                                "y": "523.00"
                            },
                            {
                                "x": 38,
                                "y": "529.00"
                            },
                            {
                                "x": 39,
                                "y": "529.00"
                            },
                            {
                                "x": 40,
                                "y": "534.00"
                            },
                            {
                                "x": 41,
                                "y": "539.00"
                            },
                            {
                                "x": 42,
                                "y": "545.00"
                            },
                            {
                                "x": 43,
                                "y": "545.00"
                            },
                            {
                                "x": 44,
                                "y": "545.00"
                            },
                            {
                                "x": 45,
                                "y": "555.00"
                            },
                            {
                                "x": 46,
                                "y": "567.00"
                            },
                            {
                                "x": 47,
                                "y": "572.00"
                            },
                            {
                                "x": 48,
                                "y": "584.00"
                            },
                            {
                                "x": 49,
                                "y": "590.00"
                            },
                            {
                                "x": 50,
                                "y": "590.00"
                            },
                            {
                                "x": 51,
                                "y": "595.00"
                            },
                            {
                                "x": 52,
                                "y": "601.00"
                            },
                            {
                                "x": 53,
                                "y": "743.00"
                            },
                            {
                                "x": 54,
                                "y": "758.00"
                            },
                            {
                                "x": 55,
                                "y": "765.00"
                            },
                            {
                                "x": 56,
                                "y": "765.00"
                            },
                            {
                                "x": 57,
                                "y": "781.00"
                            },
                            {
                                "x": 58,
                                "y": "796.00"
                            },
                            {
                                "x": 59,
                                "y": "804.00"
                            },
                            {
                                "x": 60,
                                "y": "340.00"
                            },
                            {
                                "x": 61,
                                "y": "340.00"
                            },
                            {
                                "x": 62,
                                "y": "347.00"
                            },
                            {
                                "x": 63,
                                "y": "347.00"
                            },
                            {
                                "x": 64,
                                "y": "353.00"
                            },
                            {
                                "x": 65,
                                "y": "361.00"
                            },
                            {
                                "x": 66,
                                "y": "368.00"
                            },
                            {
                                "x": 67,
                                "y": "371.00"
                            }
                        ],
                        "label": "Points cotis\u00e9s",
                        "borderColor": "#ff0000",
                        "fill": false,
                        "lineTension": 0.25
                    },
                    {
                        "data": [
                            {
                                "x": 19,
                                "y": 628
                            },
                            {
                                "x": 20,
                                "y": 628
                            },
                            {
                                "x": 21,
                                "y": 628
                            },
                            {
                                "x": 22,
                                "y": 628
                            },
                            {
                                "x": 23,
                                "y": 628
                            },
                            {
                                "x": 24,
                                "y": 628
                            },
                            {
                                "x": 25,
                                "y": 628
                            },
                            {
                                "x": 26,
                                "y": 628
                            },
                            {
                                "x": 27,
                                "y": 628
                            },
                            {
                                "x": 28,
                                "y": 628
                            },
                            {
                                "x": 29,
                                "y": 628
                            },
                            {
                                "x": 30,
                                "y": 628
                            },
                            {
                                "x": 31,
                                "y": 628
                            },
                            {
                                "x": 32,
                                "y": 628
                            },
                            {
                                "x": 33,
                                "y": 628
                            },
                            {
                                "x": 34,
                                "y": 1262
                            },
                            {
                                "x": 35,
                                "y": 1262
                            },
                            {
                                "x": 36,
                                "y": 1262
                            },
                            {
                                "x": 37,
                                "y": 1262
                            },
                            {
                                "x": 38,
                                "y": 1262
                            },
                            {
                                "x": 39,
                                "y": 1262
                            },
                            {
                                "x": 40,
                                "y": 1262
                            },
                            {
                                "x": 41,
                                "y": 1262
                            },
                            {
                                "x": 42,
                                "y": 1262
                            },
                            {
                                "x": 43,
                                "y": 1262
                            },
                            {
                                "x": 44,
                                "y": 1262
                            },
                            {
                                "x": 45,
                                "y": 1262
                            },
                            {
                                "x": 46,
                                "y": 1262
                            },
                            {
                                "x": 47,
                                "y": 1262
                            },
                            {
                                "x": 48,
                                "y": 1262
                            },
                            {
                                "x": 49,
                                "y": 1262
                            },
                            {
                                "x": 50,
                                "y": 1262
                            },
                            {
                                "x": 51,
                                "y": 1262
                            },
                            {
                                "x": 52,
                                "y": 1262
                            },
                            {
                                "x": 53,
                                "y": 1528
                            },
                            {
                                "x": 54,
                                "y": 1528
                            },
                            {
                                "x": 55,
                                "y": 1528
                            },
                            {
                                "x": 56,
                                "y": 1528
                            },
                            {
                                "x": 57,
                                "y": 1528
                            },
                            {
                                "x": 58,
                                "y": 1528
                            },
                            {
                                "x": 59,
                                "y": 1528
                            },
                            {
                                "x": 60,
                                "y": 646
                            },
                            {
                                "x": 61,
                                "y": 646
                            },
                            {
                                "x": 62,
                                "y": 646
                            },
                            {
                                "x": 63,
                                "y": 646
                            },
                            {
                                "x": 64,
                                "y": 646
                            },
                            {
                                "x": 65,
                                "y": 646
                            },
                            {
                                "x": 66,
                                "y": 646
                            },
                            {
                                "x": 67,
                                "y": 646
                            }
                        ],
                        "label": "Nombre d'heure dans l'ann\u00e9e",
                        "borderColor": "green",
                        "fill": false,
                        "lineTension": 0.25
                    }
                ]
            },
            "options": {
                "title": {
                    "display": true,
                    "text": "Carri\u00e8re"
                },
                "scales": {
                    "xAxes": [
                        {
                            "type": "linear"
                        }
                    ]
                }
            }
        }
    ],
    "LittleGraph": [
        {
            "type": "line",
            "data": {
                "datasets": [
                    {
                        "data": [
                            {
                                "x": 19,
                                "y": 0
                            },
                            {
                                "x": 20,
                                "y": 213
                            },
                            {
                                "x": 21,
                                "y": 431
                            },
                            {
                                "x": 22,
                                "y": 651
                            },
                            {
                                "x": 23,
                                "y": 871
                            },
                            {
                                "x": 24,
                                "y": 1091
                            },
                            {
                                "x": 25,
                                "y": 1313
                            },
                            {
                                "x": 26,
                                "y": 1535
                            },
                            {
                                "x": 27,
                                "y": 1761
                            },
                            {
                                "x": 28,
                                "y": 1992
                            },
                            {
                                "x": 29,
                                "y": 2228
                            },
                            {
                                "x": 30,
                                "y": 2466
                            },
                            {
                                "x": 31,
                                "y": 2709
                            },
                            {
                                "x": 32,
                                "y": 2954
                            },
                            {
                                "x": 33,
                                "y": 3199
                            },
                            {
                                "x": 34,
                                "y": 3449
                            },
                            {
                                "x": 35,
                                "y": 3962
                            },
                            {
                                "x": 36,
                                "y": 4475
                            },
                            {
                                "x": 37,
                                "y": 4998
                            },
                            {
                                "x": 38,
                                "y": 5521
                            },
                            {
                                "x": 39,
                                "y": 6050
                            },
                            {
                                "x": 40,
                                "y": 6579
                            },
                            {
                                "x": 41,
                                "y": 7113
                            },
                            {
                                "x": 42,
                                "y": 7652
                            },
                            {
                                "x": 43,
                                "y": 8197
                            },
                            {
                                "x": 44,
                                "y": 8742
                            },
                            {
                                "x": 45,
                                "y": 9287
                            },
                            {
                                "x": 46,
                                "y": 9842
                            },
                            {
                                "x": 47,
                                "y": 10409
                            },
                            {
                                "x": 48,
                                "y": 10981
                            },
                            {
                                "x": 49,
                                "y": 11565
                            },
                            {
                                "x": 50,
                                "y": 12155
                            },
                            {
                                "x": 51,
                                "y": 12745
                            },
                            {
                                "x": 52,
                                "y": 13340
                            },
                            {
                                "x": 53,
                                "y": 13941
                            },
                            {
                                "x": 54,
                                "y": 14684
                            },
                            {
                                "x": 55,
                                "y": 15442
                            },
                            {
                                "x": 56,
                                "y": 16207
                            },
                            {
                                "x": 57,
                                "y": 16972
                            },
                            {
                                "x": 58,
                                "y": 17753
                            },
                            {
                                "x": 59,
                                "y": 18549
                            },
                            {
                                "x": 60,
                                "y": 19353
                            },
                            {
                                "x": 61,
                                "y": 19693
                            },
                            {
                                "x": 62,
                                "y": 20033
                            },
                            {
                                "x": 63,
                                "y": 20380
                            },
                            {
                                "x": 64,
                                "y": 20727
                            },
                            {
                                "x": 65,
                                "y": 21080
                            },
                            {
                                "x": 66,
                                "y": 21441
                            },
                            {
                                "x": 67,
                                "y": 21809
                            }
                        ],
                        "label": "Cumul Points",
                        "borderColor": "#aa0000",
                        "fill": false,
                        "lineTension": 0
                    }
                ]
            },
            "options": {
                "title": {
                    "display": true,
                    "text": "Cotisations"
                },
                "scales": {
                    "xAxes": [
                        {
                            "type": "linear"
                        }
                    ]
                }
            }
        },
        {
            "type": "line",
            "data": {
                "datasets": [
                    {
                        "data": [
                            {
                                "x": 62,
                                "y": "1987.39"
                            },
                            {
                                "x": 63,
                                "y": "2007.26"
                            },
                            {
                                "x": 64,
                                "y": "2027.33"
                            },
                            {
                                "x": 65,
                                "y": "2047.61"
                            },
                            {
                                "x": 66,
                                "y": "2068.08"
                            },
                            {
                                "x": 67,
                                "y": "2088.76"
                            }
                        ],
                        "label": "Pension Nouveau Syst\u00e8me",
                        "borderColor": "#00aa00",
                        "fill": false,
                        "lineTension": 0
                    },
                    {
                        "data": [
                            {
                                "x": 62,
                                "y": "1698.67"
                            },
                            {
                                "x": 63,
                                "y": "1801.42"
                            },
                            {
                                "x": 64,
                                "y": "1907.57"
                            },
                            {
                                "x": 65,
                                "y": "2016.68"
                            },
                            {
                                "x": 66,
                                "y": "2128.95"
                            },
                            {
                                "x": 67,
                                "y": "2243.51"
                            }
                        ],
                        "label": "Pension Syst\u00e8me Actuel",
                        "borderColor": "#0000aa",
                        "fill": false,
                        "lineTension": 0
                    },
                    {
                        "data": [
                            {
                                "x": 62,
                                "y": 2338.1018626882483
                            },
                            {
                                "x": 63,
                                "y": 2361.4828813151307
                            },
                            {
                                "x": 64,
                                "y": 2385.097710128282
                            },
                            {
                                "x": 65,
                                "y": 2408.948687229565
                            },
                            {
                                "x": 66,
                                "y": 2433.0381741018605
                            },
                            {
                                "x": 67,
                                "y": 2457.3685558428792
                            }
                        ],
                        "label": "SMIC",
                        "borderColor": "red",
                        "fill": false,
                        "lineTension": 0
                    }
                ]
            },
            "options": {
                "title": {
                    "display": true,
                    "text": "Pension"
                },
                "scales": {
                    "xAxes": [
                        {
                            "type": "linear"
                        }
                    ]
                }
            }
        }
    ]
}