{
    "StartAge": 18,
    "StartSalary": 2080.8,
    "CotisationTime": "45 - 50",
    "BigGraph": [
        {
            "type": "line",
            "data": {
                "datasets": [
                    {
                        "data": [
                            {
                                "x": 18,
                                "y": "2080.80"
                            },
                            {
                                "x": 19,
                                "y": "2101.61"
                            },
                            {
                                "x": 20,
                                "y": "2143.64"
                            },
                            {
                                "x": 21,
                                "y": "2143.64"
                            },
                            {
                                "x": 22,
                                "y": "2165.08"
                            },
                            {
                                "x": 23,
                                "y": "2208.38"
                            },
                            {
                                "x": 24,
                                "y": "2230.46"
                            },
                            {
                                "x": 25,
                                "y": "2230.46"
                            },
                            {
                                "x": 26,
                                "y": "2275.07"
                            },
                            {
                                "x": 27,
                                "y": "2320.57"
                            },
                            {
                                "x": 28,
                                "y": "2343.78"
                            },
                            {
                                "x": 29,
                                "y": "2367.22"
                            },
                            {
                                "x": 30,
                                "y": "2414.56"
                            },
                            {
                                "x": 31,
                                "y": "2414.56"
                            },
                            {
                                "x": 32,
                                "y": "2462.85"
                            },
                            {
                                "x": 33,
                                "y": "2487.48"
                            },
                            {
                                "x": 34,
                                "y": "2512.35"
                            },
                            {
                                "x": 35,
                                "y": "2562.60"
                            },
                            {
                                "x": 36,
                                "y": "2562.60"
                            },
                            {
                                "x": 37,
                                "y": "2613.85"
                            },
                            {
                                "x": 38,
                                "y": "2666.13"
                            },
                            {
                                "x": 39,
                                "y": "2692.79"
                            },
                            {
                                "x": 40,
                                "y": "2692.79"
                            },
                            {
                                "x": 41,
                                "y": "2719.72"
                            },
                            {
                                "x": 42,
                                "y": "2774.11"
                            },
                            {
                                "x": 43,
                                "y": "2801.86"
                            },
                            {
                                "x": 44,
                                "y": "2829.87"
                            },
                            {
                                "x": 45,
                                "y": "2858.17"
                            },
                            {
                                "x": 46,
                                "y": "2858.17"
                            },
                            {
                                "x": 47,
                                "y": "2858.17"
                            },
                            {
                                "x": 48,
                                "y": "2858.17"
                            },
                            {
                                "x": 49,
                                "y": "2886.75"
                            },
                            {
                                "x": 50,
                                "y": "2886.75"
                            },
                            {
                                "x": 51,
                                "y": "2915.62"
                            },
                            {
                                "x": 52,
                                "y": "2973.93"
                            },
                            {
                                "x": 53,
                                "y": "3003.67"
                            },
                            {
                                "x": 54,
                                "y": "3063.75"
                            },
                            {
                                "x": 55,
                                "y": "3125.02"
                            },
                            {
                                "x": 56,
                                "y": "3187.52"
                            },
                            {
                                "x": 57,
                                "y": "3187.52"
                            },
                            {
                                "x": 58,
                                "y": "3187.52"
                            },
                            {
                                "x": 59,
                                "y": "3187.52"
                            },
                            {
                                "x": 60,
                                "y": "3219.40"
                            },
                            {
                                "x": 61,
                                "y": "3251.59"
                            },
                            {
                                "x": 62,
                                "y": "3316.62"
                            },
                            {
                                "x": 63,
                                "y": "3382.96"
                            },
                            {
                                "x": 64,
                                "y": "3416.79"
                            },
                            {
                                "x": 65,
                                "y": "3416.79"
                            },
                            {
                                "x": 66,
                                "y": "3450.95"
                            },
                            {
                                "x": 67,
                                "y": "3450.95"
                            }
                        ],
                        "label": "Salaire Brut",
                        "borderColor": "#3e95cd",
                        "fill": false,
                        "lineTension": 0
                    },
                    {
                        "data": [
                            {
                                "x": 18,
                                "y": "488.00"
                            },
                            {
                                "x": 19,
                                "y": "493.00"
                            },
                            {
                                "x": 20,
                                "y": "503.00"
                            },
                            {
                                "x": 21,
                                "y": "503.00"
                            },
                            {
                                "x": 22,
                                "y": "508.00"
                            },
                            {
                                "x": 23,
                                "y": "240.00"
                            },
                            {
                                "x": 24,
                                "y": "242.00"
                            },
                            {
                                "x": 25,
                                "y": "242.00"
                            },
                            {
                                "x": 26,
                                "y": "414.00"
                            },
                            {
                                "x": 27,
                                "y": "423.00"
                            },
                            {
                                "x": 28,
                                "y": "427.00"
                            },
                            {
                                "x": 29,
                                "y": "431.00"
                            },
                            {
                                "x": 30,
                                "y": "607.00"
                            },
                            {
                                "x": 31,
                                "y": "607.00"
                            },
                            {
                                "x": 32,
                                "y": "619.00"
                            },
                            {
                                "x": 33,
                                "y": "625.00"
                            },
                            {
                                "x": 34,
                                "y": "631.00"
                            },
                            {
                                "x": 35,
                                "y": "644.00"
                            },
                            {
                                "x": 36,
                                "y": "644.00"
                            },
                            {
                                "x": 37,
                                "y": "657.00"
                            },
                            {
                                "x": 38,
                                "y": "670.00"
                            },
                            {
                                "x": 39,
                                "y": "677.00"
                            },
                            {
                                "x": 40,
                                "y": "677.00"
                            },
                            {
                                "x": 41,
                                "y": "683.00"
                            },
                            {
                                "x": 42,
                                "y": "739.00"
                            },
                            {
                                "x": 43,
                                "y": "747.00"
                            },
                            {
                                "x": 44,
                                "y": "754.00"
                            },
                            {
                                "x": 45,
                                "y": "762.00"
                            },
                            {
                                "x": 46,
                                "y": "493.00"
                            },
                            {
                                "x": 47,
                                "y": "493.00"
                            },
                            {
                                "x": 48,
                                "y": "493.00"
                            },
                            {
                                "x": 49,
                                "y": "498.00"
                            },
                            {
                                "x": 50,
                                "y": "498.00"
                            },
                            {
                                "x": 51,
                                "y": "503.00"
                            },
                            {
                                "x": 52,
                                "y": "513.00"
                            },
                            {
                                "x": 53,
                                "y": "518.00"
                            },
                            {
                                "x": 54,
                                "y": "529.00"
                            },
                            {
                                "x": 55,
                                "y": "539.00"
                            },
                            {
                                "x": 56,
                                "y": "550.00"
                            },
                            {
                                "x": 57,
                                "y": "550.00"
                            },
                            {
                                "x": 58,
                                "y": "664.00"
                            },
                            {
                                "x": 59,
                                "y": "664.00"
                            },
                            {
                                "x": 60,
                                "y": "504.00"
                            },
                            {
                                "x": 61,
                                "y": "613.00"
                            },
                            {
                                "x": 62,
                                "y": "625.00"
                            },
                            {
                                "x": 63,
                                "y": "638.00"
                            },
                            {
                                "x": 64,
                                "y": "644.00"
                            },
                            {
                                "x": 65,
                                "y": "644.00"
                            },
                            {
                                "x": 66,
                                "y": "651.00"
                            },
                            {
                                "x": 67,
                                "y": "651.00"
                            }
                        ],
                        "label": "Points cotis\u00e9s",
                        "borderColor": "#ff0000",
                        "fill": false,
                        "lineTension": 0.25
                    },
                    {
                        "data": [
                            {
                                "x": 18,
                                "y": 1407
                            },
                            {
                                "x": 19,
                                "y": 1407
                            },
                            {
                                "x": 20,
                                "y": 1407
                            },
                            {
                                "x": 21,
                                "y": 1407
                            },
                            {
                                "x": 22,
                                "y": 1407
                            },
                            {
                                "x": 23,
                                "y": 652
                            },
                            {
                                "x": 24,
                                "y": 652
                            },
                            {
                                "x": 25,
                                "y": 652
                            },
                            {
                                "x": 26,
                                "y": 1093
                            },
                            {
                                "x": 27,
                                "y": 1093
                            },
                            {
                                "x": 28,
                                "y": 1093
                            },
                            {
                                "x": 29,
                                "y": 1093
                            },
                            {
                                "x": 30,
                                "y": 1507
                            },
                            {
                                "x": 31,
                                "y": 1507
                            },
                            {
                                "x": 32,
                                "y": 1507
                            },
                            {
                                "x": 33,
                                "y": 1507
                            },
                            {
                                "x": 34,
                                "y": 1507
                            },
                            {
                                "x": 35,
                                "y": 1507
                            },
                            {
                                "x": 36,
                                "y": 1507
                            },
                            {
                                "x": 37,
                                "y": 1507
                            },
                            {
                                "x": 38,
                                "y": 1507
                            },
                            {
                                "x": 39,
                                "y": 1507
                            },
                            {
                                "x": 40,
                                "y": 1507
                            },
                            {
                                "x": 41,
                                "y": 1507
                            },
                            {
                                "x": 42,
                                "y": 1598
                            },
                            {
                                "x": 43,
                                "y": 1598
                            },
                            {
                                "x": 44,
                                "y": 1598
                            },
                            {
                                "x": 45,
                                "y": 1598
                            },
                            {
                                "x": 46,
                                "y": 1035
                            },
                            {
                                "x": 47,
                                "y": 1035
                            },
                            {
                                "x": 48,
                                "y": 1035
                            },
                            {
                                "x": 49,
                                "y": 1035
                            },
                            {
                                "x": 50,
                                "y": 1035
                            },
                            {
                                "x": 51,
                                "y": 1035
                            },
                            {
                                "x": 52,
                                "y": 1035
                            },
                            {
                                "x": 53,
                                "y": 1035
                            },
                            {
                                "x": 54,
                                "y": 1035
                            },
                            {
                                "x": 55,
                                "y": 1035
                            },
                            {
                                "x": 56,
                                "y": 1035
                            },
                            {
                                "x": 57,
                                "y": 1035
                            },
                            {
                                "x": 58,
                                "y": 1249
                            },
                            {
                                "x": 59,
                                "y": 1249
                            },
                            {
                                "x": 60,
                                "y": 939
                            },
                            {
                                "x": 61,
                                "y": 1131
                            },
                            {
                                "x": 62,
                                "y": 1131
                            },
                            {
                                "x": 63,
                                "y": 1131
                            },
                            {
                                "x": 64,
                                "y": 1131
                            },
                            {
                                "x": 65,
                                "y": 1131
                            },
                            {
                                "x": 66,
                                "y": 1131
                            },
                            {
                                "x": 67,
                                "y": 1131
                            }
                        ],
                        "label": "Nombre d'heure dans l'ann\u00e9e",
                        "borderColor": "green",
                        "fill": false,
                        "lineTension": 0.25
                    }
                ]
            },
            "options": {
                "title": {
                    "display": true,
                    "text": "Carri\u00e8re"
                },
                "scales": {
                    "xAxes": [
                        {
                            "type": "linear"
                        }
                    ]
                }
            }
        }
    ],
    "LittleGraph": [
        {
            "type": "line",
            "data": {
                "datasets": [
                    {
                        "data": [
                            {
                                "x": 18,
                                "y": 0
                            },
                            {
                                "x": 19,
                                "y": 488
                            },
                            {
                                "x": 20,
                                "y": 981
                            },
                            {
                                "x": 21,
                                "y": 1484
                            },
                            {
                                "x": 22,
                                "y": 1987
                            },
                            {
                                "x": 23,
                                "y": 2495
                            },
                            {
                                "x": 24,
                                "y": 2735
                            },
                            {
                                "x": 25,
                                "y": 2977
                            },
                            {
                                "x": 26,
                                "y": 3219
                            },
                            {
                                "x": 27,
                                "y": 3633
                            },
                            {
                                "x": 28,
                                "y": 4056
                            },
                            {
                                "x": 29,
                                "y": 4483
                            },
                            {
                                "x": 30,
                                "y": 4914
                            },
                            {
                                "x": 31,
                                "y": 5521
                            },
                            {
                                "x": 32,
                                "y": 6128
                            },
                            {
                                "x": 33,
                                "y": 6747
                            },
                            {
                                "x": 34,
                                "y": 7372
                            },
                            {
                                "x": 35,
                                "y": 8003
                            },
                            {
                                "x": 36,
                                "y": 8647
                            },
                            {
                                "x": 37,
                                "y": 9291
                            },
                            {
                                "x": 38,
                                "y": 9948
                            },
                            {
                                "x": 39,
                                "y": 10618
                            },
                            {
                                "x": 40,
                                "y": 11295
                            },
                            {
                                "x": 41,
                                "y": 11972
                            },
                            {
                                "x": 42,
                                "y": 12655
                            },
                            {
                                "x": 43,
                                "y": 13394
                            },
                            {
                                "x": 44,
                                "y": 14141
                            },
                            {
                                "x": 45,
                                "y": 14895
                            },
                            {
                                "x": 46,
                                "y": 15657
                            },
                            {
                                "x": 47,
                                "y": 16150
                            },
                            {
                                "x": 48,
                                "y": 16643
                            },
                            {
                                "x": 49,
                                "y": 17136
                            },
                            {
                                "x": 50,
                                "y": 17634
                            },
                            {
                                "x": 51,
                                "y": 18132
                            },
                            {
                                "x": 52,
                                "y": 18635
                            },
                            {
                                "x": 53,
                                "y": 19148
                            },
                            {
                                "x": 54,
                                "y": 19666
                            },
                            {
                                "x": 55,
                                "y": 20195
                            },
                            {
                                "x": 56,
                                "y": 20734
                            },
                            {
                                "x": 57,
                                "y": 21284
                            },
                            {
                                "x": 58,
                                "y": 21834
                            },
                            {
                                "x": 59,
                                "y": 22498
                            },
                            {
                                "x": 60,
                                "y": 23162
                            },
                            {
                                "x": 61,
                                "y": 23666
                            },
                            {
                                "x": 62,
                                "y": 24279
                            },
                            {
                                "x": 63,
                                "y": 24904
                            },
                            {
                                "x": 64,
                                "y": 25542
                            },
                            {
                                "x": 65,
                                "y": 26186
                            },
                            {
                                "x": 66,
                                "y": 26830
                            },
                            {
                                "x": 67,
                                "y": 27481
                            }
                        ],
                        "label": "Cumul Points",
                        "borderColor": "#aa0000",
                        "fill": false,
                        "lineTension": 0
                    }
                ]
            },
            "options": {
                "title": {
                    "display": true,
                    "text": "Cotisations"
                },
                "scales": {
                    "xAxes": [
                        {
                            "type": "linear"
                        }
                    ]
                }
            }
        },
        {
            "type": "line",
            "data": {
                "datasets": [
                    {
                        "data": [
                            {
                                "x": 62,
                                "y": "2007.26"
                            },
                            {
                                "x": 63,
                                "y": "2027.33"
                            },
                            {
                                "x": 64,
                                "y": "2047.61"
                            },
                            {
                                "x": 65,
                                "y": "2068.08"
                            },
                            {
                                "x": 66,
                                "y": "2088.76"
                            },
                            {
                                "x": 67,
                                "y": "2109.65"
                            }
                        ],
                        "label": "Pension Nouveau Syst\u00e8me",
                        "borderColor": "#00aa00",
                        "fill": false,
                        "lineTension": 0
                    },
                    {
                        "data": [
                            {
                                "x": 62,
                                "y": "1864.88"
                            },
                            {
                                "x": 63,
                                "y": "1972.61"
                            },
                            {
                                "x": 64,
                                "y": "2082.25"
                            },
                            {
                                "x": 65,
                                "y": "2193.64"
                            },
                            {
                                "x": 66,
                                "y": "2306.98"
                            },
                            {
                                "x": 67,
                                "y": "2420.37"
                            }
                        ],
                        "label": "Pension Syst\u00e8me Actuel",
                        "borderColor": "#0000aa",
                        "fill": false,
                        "lineTension": 0
                    },
                    {
                        "data": [
                            {
                                "x": 62,
                                "y": 2361.4828813151307
                            },
                            {
                                "x": 63,
                                "y": 2385.097710128282
                            },
                            {
                                "x": 64,
                                "y": 2408.948687229565
                            },
                            {
                                "x": 65,
                                "y": 2433.0381741018605
                            },
                            {
                                "x": 66,
                                "y": 2457.3685558428792
                            },
                            {
                                "x": 67,
                                "y": 2481.942241401308
                            }
                        ],
                        "label": "SMIC",
                        "borderColor": "red",
                        "fill": false,
                        "lineTension": 0
                    }
                ]
            },
            "options": {
                "title": {
                    "display": true,
                    "text": "Pension"
                },
                "scales": {
                    "xAxes": [
                        {
                            "type": "linear"
                        }
                    ]
                }
            }
        }
    ]
}