{
    "StartAge": 29,
    "StartSalary": 2230.46187376032,
    "CotisationTime": "34 - 39",
    "BigGraph": [
        {
            "type": "line",
            "data": {
                "datasets": [
                    {
                        "data": [
                            {
                                "x": 29,
                                "y": "2230.46"
                            },
                            {
                                "x": 30,
                                "y": "2275.07"
                            },
                            {
                                "x": 31,
                                "y": "2275.07"
                            },
                            {
                                "x": 32,
                                "y": "2320.57"
                            },
                            {
                                "x": 33,
                                "y": "2366.98"
                            },
                            {
                                "x": 34,
                                "y": "2390.65"
                            },
                            {
                                "x": 35,
                                "y": "2390.65"
                            },
                            {
                                "x": 36,
                                "y": "2390.65"
                            },
                            {
                                "x": 37,
                                "y": "2390.65"
                            },
                            {
                                "x": 38,
                                "y": "2390.65"
                            },
                            {
                                "x": 39,
                                "y": "2414.56"
                            },
                            {
                                "x": 40,
                                "y": "2438.71"
                            },
                            {
                                "x": 41,
                                "y": "2487.48"
                            },
                            {
                                "x": 42,
                                "y": "2487.48"
                            },
                            {
                                "x": 43,
                                "y": "2512.35"
                            },
                            {
                                "x": 44,
                                "y": "2562.60"
                            },
                            {
                                "x": 45,
                                "y": "2562.60"
                            },
                            {
                                "x": 46,
                                "y": "2613.85"
                            },
                            {
                                "x": 47,
                                "y": "2639.99"
                            },
                            {
                                "x": 48,
                                "y": "2639.99"
                            },
                            {
                                "x": 49,
                                "y": "2639.99"
                            },
                            {
                                "x": 50,
                                "y": "2639.99"
                            },
                            {
                                "x": 51,
                                "y": "2639.99"
                            },
                            {
                                "x": 52,
                                "y": "2639.99"
                            },
                            {
                                "x": 53,
                                "y": "2666.39"
                            },
                            {
                                "x": 54,
                                "y": "2719.72"
                            },
                            {
                                "x": 55,
                                "y": "2719.72"
                            },
                            {
                                "x": 56,
                                "y": "2774.11"
                            },
                            {
                                "x": 57,
                                "y": "2801.86"
                            },
                            {
                                "x": 58,
                                "y": "2857.89"
                            },
                            {
                                "x": 59,
                                "y": "2886.47"
                            },
                            {
                                "x": 60,
                                "y": "2915.34"
                            },
                            {
                                "x": 61,
                                "y": "2915.34"
                            },
                            {
                                "x": 62,
                                "y": "2915.34"
                            },
                            {
                                "x": 63,
                                "y": "2944.49"
                            },
                            {
                                "x": 64,
                                "y": "2973.93"
                            },
                            {
                                "x": 65,
                                "y": "3003.67"
                            },
                            {
                                "x": 66,
                                "y": "3063.75"
                            },
                            {
                                "x": 67,
                                "y": "3125.02"
                            }
                        ],
                        "label": "Salaire Brut",
                        "borderColor": "#3e95cd",
                        "fill": false,
                        "lineTension": 0
                    },
                    {
                        "data": [
                            {
                                "x": 29,
                                "y": "243.00"
                            },
                            {
                                "x": 30,
                                "y": "248.00"
                            },
                            {
                                "x": 31,
                                "y": "248.00"
                            },
                            {
                                "x": 32,
                                "y": "253.00"
                            },
                            {
                                "x": 33,
                                "y": "258.00"
                            },
                            {
                                "x": 34,
                                "y": "261.00"
                            },
                            {
                                "x": 35,
                                "y": "261.00"
                            },
                            {
                                "x": 36,
                                "y": "261.00"
                            },
                            {
                                "x": 37,
                                "y": "261.00"
                            },
                            {
                                "x": 38,
                                "y": "261.00"
                            },
                            {
                                "x": 39,
                                "y": "263.00"
                            },
                            {
                                "x": 40,
                                "y": "266.00"
                            },
                            {
                                "x": 41,
                                "y": "271.00"
                            },
                            {
                                "x": 42,
                                "y": "271.00"
                            },
                            {
                                "x": 43,
                                "y": "274.00"
                            },
                            {
                                "x": 44,
                                "y": "478.00"
                            },
                            {
                                "x": 45,
                                "y": "413.00"
                            },
                            {
                                "x": 46,
                                "y": "422.00"
                            },
                            {
                                "x": 47,
                                "y": "453.00"
                            },
                            {
                                "x": 48,
                                "y": "453.00"
                            },
                            {
                                "x": 49,
                                "y": "453.00"
                            },
                            {
                                "x": 50,
                                "y": "453.00"
                            },
                            {
                                "x": 51,
                                "y": "453.00"
                            },
                            {
                                "x": 52,
                                "y": "453.00"
                            },
                            {
                                "x": 53,
                                "y": "458.00"
                            },
                            {
                                "x": 54,
                                "y": "467.00"
                            },
                            {
                                "x": 55,
                                "y": "467.00"
                            },
                            {
                                "x": 56,
                                "y": "476.00"
                            },
                            {
                                "x": 57,
                                "y": "481.00"
                            },
                            {
                                "x": 58,
                                "y": "491.00"
                            },
                            {
                                "x": 59,
                                "y": "496.00"
                            },
                            {
                                "x": 60,
                                "y": "501.00"
                            },
                            {
                                "x": 61,
                                "y": "353.00"
                            },
                            {
                                "x": 62,
                                "y": "353.00"
                            },
                            {
                                "x": 63,
                                "y": "357.00"
                            },
                            {
                                "x": 64,
                                "y": "360.00"
                            },
                            {
                                "x": 65,
                                "y": "364.00"
                            },
                            {
                                "x": 66,
                                "y": "371.00"
                            },
                            {
                                "x": 67,
                                "y": "379.00"
                            }
                        ],
                        "label": "Points cotis\u00e9s",
                        "borderColor": "#ff0000",
                        "fill": false,
                        "lineTension": 0.25
                    },
                    {
                        "data": [
                            {
                                "x": 29,
                                "y": 655
                            },
                            {
                                "x": 30,
                                "y": 655
                            },
                            {
                                "x": 31,
                                "y": 655
                            },
                            {
                                "x": 32,
                                "y": 655
                            },
                            {
                                "x": 33,
                                "y": 655
                            },
                            {
                                "x": 34,
                                "y": 655
                            },
                            {
                                "x": 35,
                                "y": 655
                            },
                            {
                                "x": 36,
                                "y": 655
                            },
                            {
                                "x": 37,
                                "y": 655
                            },
                            {
                                "x": 38,
                                "y": 655
                            },
                            {
                                "x": 39,
                                "y": 655
                            },
                            {
                                "x": 40,
                                "y": 655
                            },
                            {
                                "x": 41,
                                "y": 655
                            },
                            {
                                "x": 42,
                                "y": 655
                            },
                            {
                                "x": 43,
                                "y": 655
                            },
                            {
                                "x": 44,
                                "y": 1118
                            },
                            {
                                "x": 45,
                                "y": 968
                            },
                            {
                                "x": 46,
                                "y": 968
                            },
                            {
                                "x": 47,
                                "y": 1030
                            },
                            {
                                "x": 48,
                                "y": 1030
                            },
                            {
                                "x": 49,
                                "y": 1030
                            },
                            {
                                "x": 50,
                                "y": 1030
                            },
                            {
                                "x": 51,
                                "y": 1030
                            },
                            {
                                "x": 52,
                                "y": 1030
                            },
                            {
                                "x": 53,
                                "y": 1030
                            },
                            {
                                "x": 54,
                                "y": 1030
                            },
                            {
                                "x": 55,
                                "y": 1030
                            },
                            {
                                "x": 56,
                                "y": 1030
                            },
                            {
                                "x": 57,
                                "y": 1030
                            },
                            {
                                "x": 58,
                                "y": 1030
                            },
                            {
                                "x": 59,
                                "y": 1030
                            },
                            {
                                "x": 60,
                                "y": 1030
                            },
                            {
                                "x": 61,
                                "y": 727
                            },
                            {
                                "x": 62,
                                "y": 727
                            },
                            {
                                "x": 63,
                                "y": 727
                            },
                            {
                                "x": 64,
                                "y": 727
                            },
                            {
                                "x": 65,
                                "y": 727
                            },
                            {
                                "x": 66,
                                "y": 727
                            },
                            {
                                "x": 67,
                                "y": 727
                            }
                        ],
                        "label": "Nombre d'heure dans l'ann\u00e9e",
                        "borderColor": "green",
                        "fill": false,
                        "lineTension": 0.25
                    }
                ]
            },
            "options": {
                "title": {
                    "display": true,
                    "text": "Carri\u00e8re"
                },
                "scales": {
                    "xAxes": [
                        {
                            "type": "linear"
                        }
                    ]
                }
            }
        }
    ],
    "LittleGraph": [
        {
            "type": "line",
            "data": {
                "datasets": [
                    {
                        "data": [
                            {
                                "x": 29,
                                "y": 0
                            },
                            {
                                "x": 30,
                                "y": 243
                            },
                            {
                                "x": 31,
                                "y": 491
                            },
                            {
                                "x": 32,
                                "y": 739
                            },
                            {
                                "x": 33,
                                "y": 992
                            },
                            {
                                "x": 34,
                                "y": 1250
                            },
                            {
                                "x": 35,
                                "y": 1511
                            },
                            {
                                "x": 36,
                                "y": 1772
                            },
                            {
                                "x": 37,
                                "y": 2033
                            },
                            {
                                "x": 38,
                                "y": 2294
                            },
                            {
                                "x": 39,
                                "y": 2555
                            },
                            {
                                "x": 40,
                                "y": 2818
                            },
                            {
                                "x": 41,
                                "y": 3084
                            },
                            {
                                "x": 42,
                                "y": 3355
                            },
                            {
                                "x": 43,
                                "y": 3626
                            },
                            {
                                "x": 44,
                                "y": 3900
                            },
                            {
                                "x": 45,
                                "y": 4378
                            },
                            {
                                "x": 46,
                                "y": 4791
                            },
                            {
                                "x": 47,
                                "y": 5213
                            },
                            {
                                "x": 48,
                                "y": 5666
                            },
                            {
                                "x": 49,
                                "y": 6119
                            },
                            {
                                "x": 50,
                                "y": 6572
                            },
                            {
                                "x": 51,
                                "y": 7025
                            },
                            {
                                "x": 52,
                                "y": 7478
                            },
                            {
                                "x": 53,
                                "y": 7931
                            },
                            {
                                "x": 54,
                                "y": 8389
                            },
                            {
                                "x": 55,
                                "y": 8856
                            },
                            {
                                "x": 56,
                                "y": 9323
                            },
                            {
                                "x": 57,
                                "y": 9799
                            },
                            {
                                "x": 58,
                                "y": 10280
                            },
                            {
                                "x": 59,
                                "y": 10771
                            },
                            {
                                "x": 60,
                                "y": 11267
                            },
                            {
                                "x": 61,
                                "y": 11768
                            },
                            {
                                "x": 62,
                                "y": 12121
                            },
                            {
                                "x": 63,
                                "y": 12474
                            },
                            {
                                "x": 64,
                                "y": 12831
                            },
                            {
                                "x": 65,
                                "y": 13191
                            },
                            {
                                "x": 66,
                                "y": 13555
                            },
                            {
                                "x": 67,
                                "y": 13926
                            }
                        ],
                        "label": "Cumul Points",
                        "borderColor": "#aa0000",
                        "fill": false,
                        "lineTension": 0
                    }
                ]
            },
            "options": {
                "title": {
                    "display": true,
                    "text": "Cotisations"
                },
                "scales": {
                    "xAxes": [
                        {
                            "type": "linear"
                        }
                    ]
                }
            }
        },
        {
            "type": "line",
            "data": {
                "datasets": [
                    {
                        "data": [
                            {
                                "x": 62,
                                "y": "499.99"
                            },
                            {
                                "x": 63,
                                "y": "543.14"
                            },
                            {
                                "x": 64,
                                "y": "588.09"
                            },
                            {
                                "x": 65,
                                "y": "634.82"
                            },
                            {
                                "x": 66,
                                "y": "683.40"
                            },
                            {
                                "x": 67,
                                "y": "734.02"
                            }
                        ],
                        "label": "Pension Nouveau Syst\u00e8me",
                        "borderColor": "#00aa00",
                        "fill": false,
                        "lineTension": 0
                    },
                    {
                        "data": [
                            {
                                "x": 62,
                                "y": "797.79"
                            },
                            {
                                "x": 63,
                                "y": "884.88"
                            },
                            {
                                "x": 64,
                                "y": "973.38"
                            },
                            {
                                "x": 65,
                                "y": "1063.31"
                            },
                            {
                                "x": 66,
                                "y": "1154.78"
                            },
                            {
                                "x": 67,
                                "y": "1664.99"
                            }
                        ],
                        "label": "Pension Syst\u00e8me Actuel",
                        "borderColor": "#0000aa",
                        "fill": false,
                        "lineTension": 0
                    },
                    {
                        "data": [
                            {
                                "x": 62,
                                "y": 2116.6531150350365
                            },
                            {
                                "x": 63,
                                "y": 2137.819646185387
                            },
                            {
                                "x": 64,
                                "y": 2159.1978426472406
                            },
                            {
                                "x": 65,
                                "y": 2180.789821073713
                            },
                            {
                                "x": 66,
                                "y": 2202.59771928445
                            },
                            {
                                "x": 67,
                                "y": 2224.6236964772943
                            }
                        ],
                        "label": "SMIC",
                        "borderColor": "red",
                        "fill": false,
                        "lineTension": 0
                    }
                ]
            },
            "options": {
                "title": {
                    "display": true,
                    "text": "Pension"
                },
                "scales": {
                    "xAxes": [
                        {
                            "type": "linear"
                        }
                    ]
                }
            }
        }
    ]
}