{
    "StartAge": 28,
    "StartSalary": 3990.0,
    "CotisationTime": "35 - 40",
    "BigGraph": [
        {
            "type": "line",
            "data": {
                "datasets": [
                    {
                        "data": [
                            {
                                "x": 28,
                                "y": "3990.00"
                            },
                            {
                                "x": 29,
                                "y": "4029.90"
                            },
                            {
                                "x": 30,
                                "y": "4070.20"
                            },
                            {
                                "x": 31,
                                "y": "4110.90"
                            },
                            {
                                "x": 32,
                                "y": "4152.01"
                            },
                            {
                                "x": 33,
                                "y": "4193.53"
                            },
                            {
                                "x": 34,
                                "y": "4235.47"
                            },
                            {
                                "x": 35,
                                "y": "4277.82"
                            },
                            {
                                "x": 36,
                                "y": "4320.60"
                            },
                            {
                                "x": 37,
                                "y": "4363.80"
                            },
                            {
                                "x": 38,
                                "y": "4407.44"
                            },
                            {
                                "x": 39,
                                "y": "4451.52"
                            },
                            {
                                "x": 40,
                                "y": "4496.03"
                            },
                            {
                                "x": 41,
                                "y": "4540.99"
                            },
                            {
                                "x": 42,
                                "y": "4586.40"
                            },
                            {
                                "x": 43,
                                "y": "4632.27"
                            },
                            {
                                "x": 44,
                                "y": "4678.59"
                            },
                            {
                                "x": 45,
                                "y": "4725.37"
                            },
                            {
                                "x": 46,
                                "y": "4772.63"
                            },
                            {
                                "x": 47,
                                "y": "4820.35"
                            },
                            {
                                "x": 48,
                                "y": "4868.56"
                            },
                            {
                                "x": 49,
                                "y": "4917.24"
                            },
                            {
                                "x": 50,
                                "y": "4966.42"
                            },
                            {
                                "x": 51,
                                "y": "5016.08"
                            },
                            {
                                "x": 52,
                                "y": "5066.24"
                            },
                            {
                                "x": 53,
                                "y": "5116.90"
                            },
                            {
                                "x": 54,
                                "y": "5168.07"
                            },
                            {
                                "x": 55,
                                "y": "5219.75"
                            },
                            {
                                "x": 56,
                                "y": "5271.95"
                            },
                            {
                                "x": 57,
                                "y": "5324.67"
                            },
                            {
                                "x": 58,
                                "y": "5377.92"
                            },
                            {
                                "x": 59,
                                "y": "5431.70"
                            },
                            {
                                "x": 60,
                                "y": "5486.01"
                            },
                            {
                                "x": 61,
                                "y": "5540.87"
                            },
                            {
                                "x": 62,
                                "y": "5596.28"
                            },
                            {
                                "x": 63,
                                "y": "5652.24"
                            },
                            {
                                "x": 64,
                                "y": "5708.77"
                            },
                            {
                                "x": 65,
                                "y": "5765.86"
                            },
                            {
                                "x": 66,
                                "y": "5823.51"
                            },
                            {
                                "x": 67,
                                "y": "5881.75"
                            }
                        ],
                        "label": "Salaire Brut",
                        "borderColor": "#3e95cd",
                        "fill": false,
                        "lineTension": 0
                    },
                    {
                        "data": [
                            {
                                "x": 28,
                                "y": "1069.00"
                            },
                            {
                                "x": 29,
                                "y": "1080.00"
                            },
                            {
                                "x": 30,
                                "y": "1091.00"
                            },
                            {
                                "x": 31,
                                "y": "1102.00"
                            },
                            {
                                "x": 32,
                                "y": "1113.00"
                            },
                            {
                                "x": 33,
                                "y": "1124.00"
                            },
                            {
                                "x": 34,
                                "y": "1135.00"
                            },
                            {
                                "x": 35,
                                "y": "1147.00"
                            },
                            {
                                "x": 36,
                                "y": "1158.00"
                            },
                            {
                                "x": 37,
                                "y": "1170.00"
                            },
                            {
                                "x": 38,
                                "y": "1181.00"
                            },
                            {
                                "x": 39,
                                "y": "1193.00"
                            },
                            {
                                "x": 40,
                                "y": "1205.00"
                            },
                            {
                                "x": 41,
                                "y": "1217.00"
                            },
                            {
                                "x": 42,
                                "y": "1229.00"
                            },
                            {
                                "x": 43,
                                "y": "1242.00"
                            },
                            {
                                "x": 44,
                                "y": "1254.00"
                            },
                            {
                                "x": 45,
                                "y": "1267.00"
                            },
                            {
                                "x": 46,
                                "y": "1279.00"
                            },
                            {
                                "x": 47,
                                "y": "1292.00"
                            },
                            {
                                "x": 48,
                                "y": "1305.00"
                            },
                            {
                                "x": 49,
                                "y": "1318.00"
                            },
                            {
                                "x": 50,
                                "y": "1331.00"
                            },
                            {
                                "x": 51,
                                "y": "1345.00"
                            },
                            {
                                "x": 52,
                                "y": "1358.00"
                            },
                            {
                                "x": 53,
                                "y": "1372.00"
                            },
                            {
                                "x": 54,
                                "y": "1385.00"
                            },
                            {
                                "x": 55,
                                "y": "1399.00"
                            },
                            {
                                "x": 56,
                                "y": "1413.00"
                            },
                            {
                                "x": 57,
                                "y": "1427.00"
                            },
                            {
                                "x": 58,
                                "y": "1442.00"
                            },
                            {
                                "x": 59,
                                "y": "1456.00"
                            },
                            {
                                "x": 60,
                                "y": "1471.00"
                            },
                            {
                                "x": 61,
                                "y": "1485.00"
                            },
                            {
                                "x": 62,
                                "y": "1500.00"
                            },
                            {
                                "x": 63,
                                "y": "1515.00"
                            },
                            {
                                "x": 64,
                                "y": "1530.00"
                            },
                            {
                                "x": 65,
                                "y": "1546.00"
                            },
                            {
                                "x": 66,
                                "y": "1561.00"
                            },
                            {
                                "x": 67,
                                "y": "1577.00"
                            }
                        ],
                        "label": "Points cotis\u00e9s",
                        "borderColor": "#ff0000",
                        "fill": false,
                        "lineTension": 0.25
                    },
                    {
                        "data": [
                            {
                                "x": 28,
                                "y": 1607
                            },
                            {
                                "x": 29,
                                "y": 1607
                            },
                            {
                                "x": 30,
                                "y": 1607
                            },
                            {
                                "x": 31,
                                "y": 1607
                            },
                            {
                                "x": 32,
                                "y": 1607
                            },
                            {
                                "x": 33,
                                "y": 1607
                            },
                            {
                                "x": 34,
                                "y": 1607
                            },
                            {
                                "x": 35,
                                "y": 1607
                            },
                            {
                                "x": 36,
                                "y": 1607
                            },
                            {
                                "x": 37,
                                "y": 1607
                            },
                            {
                                "x": 38,
                                "y": 1607
                            },
                            {
                                "x": 39,
                                "y": 1607
                            },
                            {
                                "x": 40,
                                "y": 1607
                            },
                            {
                                "x": 41,
                                "y": 1607
                            },
                            {
                                "x": 42,
                                "y": 1607
                            },
                            {
                                "x": 43,
                                "y": 1607
                            },
                            {
                                "x": 44,
                                "y": 1607
                            },
                            {
                                "x": 45,
                                "y": 1607
                            },
                            {
                                "x": 46,
                                "y": 1607
                            },
                            {
                                "x": 47,
                                "y": 1607
                            },
                            {
                                "x": 48,
                                "y": 1607
                            },
                            {
                                "x": 49,
                                "y": 1607
                            },
                            {
                                "x": 50,
                                "y": 1607
                            },
                            {
                                "x": 51,
                                "y": 1607
                            },
                            {
                                "x": 52,
                                "y": 1607
                            },
                            {
                                "x": 53,
                                "y": 1607
                            },
                            {
                                "x": 54,
                                "y": 1607
                            },
                            {
                                "x": 55,
                                "y": 1607
                            },
                            {
                                "x": 56,
                                "y": 1607
                            },
                            {
                                "x": 57,
                                "y": 1607
                            },
                            {
                                "x": 58,
                                "y": 1607
                            },
                            {
                                "x": 59,
                                "y": 1607
                            },
                            {
                                "x": 60,
                                "y": 1607
                            },
                            {
                                "x": 61,
                                "y": 1607
                            },
                            {
                                "x": 62,
                                "y": 1607
                            },
                            {
                                "x": 63,
                                "y": 1607
                            },
                            {
                                "x": 64,
                                "y": 1607
                            },
                            {
                                "x": 65,
                                "y": 1607
                            },
                            {
                                "x": 66,
                                "y": 1607
                            },
                            {
                                "x": 67,
                                "y": 1607
                            }
                        ],
                        "label": "Nombre d'heure dans l'ann\u00e9e",
                        "borderColor": "green",
                        "fill": false,
                        "lineTension": 0.25
                    }
                ]
            },
            "options": {
                "title": {
                    "display": true,
                    "text": "Carri\u00e8re"
                },
                "scales": {
                    "xAxes": [
                        {
                            "type": "linear"
                        }
                    ]
                }
            }
        }
    ],
    "LittleGraph": [
        {
            "type": "line",
            "data": {
                "datasets": [
                    {
                        "data": [
                            {
                                "x": 28,
                                "y": 0
                            },
                            {
                                "x": 29,
                                "y": 1069
                            },
                            {
                                "x": 30,
                                "y": 2149
                            },
                            {
                                "x": 31,
                                "y": 3240
                            },
                            {
                                "x": 32,
                                "y": 4342
                            },
                            {
                                "x": 33,
                                "y": 5455
                            },
                            {
                                "x": 34,
                                "y": 6579
                            },
                            {
                                "x": 35,
                                "y": 7714
                            },
                            {
                                "x": 36,
                                "y": 8861
                            },
                            {
                                "x": 37,
                                "y": 10019
                            },
                            {
                                "x": 38,
                                "y": 11189
                            },
                            {
                                "x": 39,
                                "y": 12370
                            },
                            {
                                "x": 40,
                                "y": 13563
                            },
                            {
                                "x": 41,
                                "y": 14768
                            },
                            {
                                "x": 42,
                                "y": 15985
                            },
                            {
                                "x": 43,
                                "y": 17214
                            },
                            {
                                "x": 44,
                                "y": 18456
                            },
                            {
                                "x": 45,
                                "y": 19710
                            },
                            {
                                "x": 46,
                                "y": 20977
                            },
                            {
                                "x": 47,
                                "y": 22256
                            },
                            {
                                "x": 48,
                                "y": 23548
                            },
                            {
                                "x": 49,
                                "y": 24853
                            },
                            {
                                "x": 50,
                                "y": 26171
                            },
                            {
                                "x": 51,
                                "y": 27502
                            },
                            {
                                "x": 52,
                                "y": 28847
                            },
                            {
                                "x": 53,
                                "y": 30205
                            },
                            {
                                "x": 54,
                                "y": 31577
                            },
                            {
                                "x": 55,
                                "y": 32962
                            },
                            {
                                "x": 56,
                                "y": 34361
                            },
                            {
                                "x": 57,
                                "y": 35774
                            },
                            {
                                "x": 58,
                                "y": 37201
                            },
                            {
                                "x": 59,
                                "y": 38643
                            },
                            {
                                "x": 60,
                                "y": 40099
                            },
                            {
                                "x": 61,
                                "y": 41570
                            },
                            {
                                "x": 62,
                                "y": 43055
                            },
                            {
                                "x": 63,
                                "y": 44555
                            },
                            {
                                "x": 64,
                                "y": 46070
                            },
                            {
                                "x": 65,
                                "y": 47600
                            },
                            {
                                "x": 66,
                                "y": 49146
                            },
                            {
                                "x": 67,
                                "y": 50707
                            }
                        ],
                        "label": "Cumul Points",
                        "borderColor": "#aa0000",
                        "fill": false,
                        "lineTension": 0
                    }
                ]
            },
            "options": {
                "title": {
                    "display": true,
                    "text": "Cotisations"
                },
                "scales": {
                    "xAxes": [
                        {
                            "type": "linear"
                        }
                    ]
                }
            }
        },
        {
            "type": "line",
            "data": {
                "datasets": [
                    {
                        "data": [
                            {
                                "x": 62,
                                "y": "1776.02"
                            },
                            {
                                "x": 63,
                                "y": "1940.00"
                            },
                            {
                                "x": 64,
                                "y": "2111.54"
                            },
                            {
                                "x": 65,
                                "y": "2290.75"
                            },
                            {
                                "x": 66,
                                "y": "2477.78"
                            },
                            {
                                "x": 67,
                                "y": "2672.68"
                            }
                        ],
                        "label": "Pension Nouveau Syst\u00e8me",
                        "borderColor": "#00aa00",
                        "fill": false,
                        "lineTension": 0
                    },
                    {
                        "data": [
                            {
                                "x": 62,
                                "y": "1643.14"
                            },
                            {
                                "x": 63,
                                "y": "1810.44"
                            },
                            {
                                "x": 64,
                                "y": "1980.92"
                            },
                            {
                                "x": 65,
                                "y": "2154.64"
                            },
                            {
                                "x": 66,
                                "y": "2331.62"
                            },
                            {
                                "x": 67,
                                "y": "3139.92"
                            }
                        ],
                        "label": "Pension Syst\u00e8me Actuel",
                        "borderColor": "#0000aa",
                        "fill": false,
                        "lineTension": 0
                    },
                    {
                        "data": [
                            {
                                "x": 62,
                                "y": 2137.819646185387
                            },
                            {
                                "x": 63,
                                "y": 2159.1978426472406
                            },
                            {
                                "x": 64,
                                "y": 2180.789821073713
                            },
                            {
                                "x": 65,
                                "y": 2202.59771928445
                            },
                            {
                                "x": 66,
                                "y": 2224.6236964772943
                            },
                            {
                                "x": 67,
                                "y": 2246.8699334420676
                            }
                        ],
                        "label": "SMIC",
                        "borderColor": "red",
                        "fill": false,
                        "lineTension": 0
                    }
                ]
            },
            "options": {
                "title": {
                    "display": true,
                    "text": "Pension"
                },
                "scales": {
                    "xAxes": [
                        {
                            "type": "linear"
                        }
                    ]
                }
            }
        }
    ]
}