{
    "StartAge": 30,
    "StartSalary": 2500.0,
    "CotisationTime": "33 - 38",
    "BigGraph": [
        {
            "type": "line",
            "data": {
                "datasets": [
                    {
                        "data": [
                            {
                                "x": 30,
                                "y": "2500.00"
                            },
                            {
                                "x": 31,
                                "y": "2525.00"
                            },
                            {
                                "x": 32,
                                "y": "2550.25"
                            },
                            {
                                "x": 33,
                                "y": "2575.75"
                            },
                            {
                                "x": 34,
                                "y": "2601.51"
                            },
                            {
                                "x": 35,
                                "y": "2627.53"
                            },
                            {
                                "x": 36,
                                "y": "2653.80"
                            },
                            {
                                "x": 37,
                                "y": "2680.34"
                            },
                            {
                                "x": 38,
                                "y": "2707.14"
                            },
                            {
                                "x": 39,
                                "y": "2734.21"
                            },
                            {
                                "x": 40,
                                "y": "2761.56"
                            },
                            {
                                "x": 41,
                                "y": "2789.17"
                            },
                            {
                                "x": 42,
                                "y": "2817.06"
                            },
                            {
                                "x": 43,
                                "y": "2845.23"
                            },
                            {
                                "x": 44,
                                "y": "2873.69"
                            },
                            {
                                "x": 45,
                                "y": "2902.42"
                            },
                            {
                                "x": 46,
                                "y": "2931.45"
                            },
                            {
                                "x": 47,
                                "y": "2960.76"
                            },
                            {
                                "x": 48,
                                "y": "2990.37"
                            },
                            {
                                "x": 49,
                                "y": "3020.27"
                            },
                            {
                                "x": 50,
                                "y": "3050.48"
                            },
                            {
                                "x": 51,
                                "y": "3080.98"
                            },
                            {
                                "x": 52,
                                "y": "3111.79"
                            },
                            {
                                "x": 53,
                                "y": "3142.91"
                            },
                            {
                                "x": 54,
                                "y": "3174.34"
                            },
                            {
                                "x": 55,
                                "y": "3206.08"
                            },
                            {
                                "x": 56,
                                "y": "3238.14"
                            },
                            {
                                "x": 57,
                                "y": "3270.52"
                            },
                            {
                                "x": 58,
                                "y": "3303.23"
                            },
                            {
                                "x": 59,
                                "y": "3336.26"
                            },
                            {
                                "x": 60,
                                "y": "3369.62"
                            },
                            {
                                "x": 61,
                                "y": "3403.32"
                            },
                            {
                                "x": 62,
                                "y": "3437.35"
                            },
                            {
                                "x": 63,
                                "y": "3471.73"
                            },
                            {
                                "x": 64,
                                "y": "3506.44"
                            },
                            {
                                "x": 65,
                                "y": "3541.51"
                            },
                            {
                                "x": 66,
                                "y": "3576.92"
                            },
                            {
                                "x": 67,
                                "y": "3612.69"
                            }
                        ],
                        "label": "Salaire Brut",
                        "borderColor": "#3e95cd",
                        "fill": false,
                        "lineTension": 0
                    },
                    {
                        "data": [
                            {
                                "x": 30,
                                "y": "670.00"
                            },
                            {
                                "x": 31,
                                "y": "677.00"
                            },
                            {
                                "x": 32,
                                "y": "683.00"
                            },
                            {
                                "x": 33,
                                "y": "690.00"
                            },
                            {
                                "x": 34,
                                "y": "697.00"
                            },
                            {
                                "x": 35,
                                "y": "704.00"
                            },
                            {
                                "x": 36,
                                "y": "711.00"
                            },
                            {
                                "x": 37,
                                "y": "718.00"
                            },
                            {
                                "x": 38,
                                "y": "725.00"
                            },
                            {
                                "x": 39,
                                "y": "733.00"
                            },
                            {
                                "x": 40,
                                "y": "740.00"
                            },
                            {
                                "x": 41,
                                "y": "747.00"
                            },
                            {
                                "x": 42,
                                "y": "755.00"
                            },
                            {
                                "x": 43,
                                "y": "763.00"
                            },
                            {
                                "x": 44,
                                "y": "770.00"
                            },
                            {
                                "x": 45,
                                "y": "778.00"
                            },
                            {
                                "x": 46,
                                "y": "786.00"
                            },
                            {
                                "x": 47,
                                "y": "793.00"
                            },
                            {
                                "x": 48,
                                "y": "801.00"
                            },
                            {
                                "x": 49,
                                "y": "809.00"
                            },
                            {
                                "x": 50,
                                "y": "818.00"
                            },
                            {
                                "x": 51,
                                "y": "826.00"
                            },
                            {
                                "x": 52,
                                "y": "834.00"
                            },
                            {
                                "x": 53,
                                "y": "842.00"
                            },
                            {
                                "x": 54,
                                "y": "851.00"
                            },
                            {
                                "x": 55,
                                "y": "859.00"
                            },
                            {
                                "x": 56,
                                "y": "868.00"
                            },
                            {
                                "x": 57,
                                "y": "877.00"
                            },
                            {
                                "x": 58,
                                "y": "885.00"
                            },
                            {
                                "x": 59,
                                "y": "894.00"
                            },
                            {
                                "x": 60,
                                "y": "903.00"
                            },
                            {
                                "x": 61,
                                "y": "912.00"
                            },
                            {
                                "x": 62,
                                "y": "921.00"
                            },
                            {
                                "x": 63,
                                "y": "931.00"
                            },
                            {
                                "x": 64,
                                "y": "940.00"
                            },
                            {
                                "x": 65,
                                "y": "949.00"
                            },
                            {
                                "x": 66,
                                "y": "959.00"
                            },
                            {
                                "x": 67,
                                "y": "968.00"
                            }
                        ],
                        "label": "Points cotis\u00e9s",
                        "borderColor": "#ff0000",
                        "fill": false,
                        "lineTension": 0.25
                    },
                    {
                        "data": [
                            {
                                "x": 30,
                                "y": 1607
                            },
                            {
                                "x": 31,
                                "y": 1607
                            },
                            {
                                "x": 32,
                                "y": 1607
                            },
                            {
                                "x": 33,
                                "y": 1607
                            },
                            {
                                "x": 34,
                                "y": 1607
                            },
                            {
                                "x": 35,
                                "y": 1607
                            },
                            {
                                "x": 36,
                                "y": 1607
                            },
                            {
                                "x": 37,
                                "y": 1607
                            },
                            {
                                "x": 38,
                                "y": 1607
                            },
                            {
                                "x": 39,
                                "y": 1607
                            },
                            {
                                "x": 40,
                                "y": 1607
                            },
                            {
                                "x": 41,
                                "y": 1607
                            },
                            {
                                "x": 42,
                                "y": 1607
                            },
                            {
                                "x": 43,
                                "y": 1607
                            },
                            {
                                "x": 44,
                                "y": 1607
                            },
                            {
                                "x": 45,
                                "y": 1607
                            },
                            {
                                "x": 46,
                                "y": 1607
                            },
                            {
                                "x": 47,
                                "y": 1607
                            },
                            {
                                "x": 48,
                                "y": 1607
                            },
                            {
                                "x": 49,
                                "y": 1607
                            },
                            {
                                "x": 50,
                                "y": 1607
                            },
                            {
                                "x": 51,
                                "y": 1607
                            },
                            {
                                "x": 52,
                                "y": 1607
                            },
                            {
                                "x": 53,
                                "y": 1607
                            },
                            {
                                "x": 54,
                                "y": 1607
                            },
                            {
                                "x": 55,
                                "y": 1607
                            },
                            {
                                "x": 56,
                                "y": 1607
                            },
                            {
                                "x": 57,
                                "y": 1607
                            },
                            {
                                "x": 58,
                                "y": 1607
                            },
                            {
                                "x": 59,
                                "y": 1607
                            },
                            {
                                "x": 60,
                                "y": 1607
                            },
                            {
                                "x": 61,
                                "y": 1607
                            },
                            {
                                "x": 62,
                                "y": 1607
                            },
                            {
                                "x": 63,
                                "y": 1607
                            },
                            {
                                "x": 64,
                                "y": 1607
                            },
                            {
                                "x": 65,
                                "y": 1607
                            },
                            {
                                "x": 66,
                                "y": 1607
                            },
                            {
                                "x": 67,
                                "y": 1607
                            }
                        ],
                        "label": "Nombre d'heure dans l'ann\u00e9e",
                        "borderColor": "green",
                        "fill": false,
                        "lineTension": 0.25
                    }
                ]
            },
            "options": {
                "title": {
                    "display": true,
                    "text": "Carri\u00e8re"
                },
                "scales": {
                    "xAxes": [
                        {
                            "type": "linear"
                        }
                    ]
                }
            }
        }
    ],
    "LittleGraph": [
        {
            "type": "line",
            "data": {
                "datasets": [
                    {
                        "data": [
                            {
                                "x": 30,
                                "y": 0
                            },
                            {
                                "x": 31,
                                "y": 670
                            },
                            {
                                "x": 32,
                                "y": 1347
                            },
                            {
                                "x": 33,
                                "y": 2030
                            },
                            {
                                "x": 34,
                                "y": 2720
                            },
                            {
                                "x": 35,
                                "y": 3417
                            },
                            {
                                "x": 36,
                                "y": 4121
                            },
                            {
                                "x": 37,
                                "y": 4832
                            },
                            {
                                "x": 38,
                                "y": 5550
                            },
                            {
                                "x": 39,
                                "y": 6275
                            },
                            {
                                "x": 40,
                                "y": 7008
                            },
                            {
                                "x": 41,
                                "y": 7748
                            },
                            {
                                "x": 42,
                                "y": 8495
                            },
                            {
                                "x": 43,
                                "y": 9250
                            },
                            {
                                "x": 44,
                                "y": 10013
                            },
                            {
                                "x": 45,
                                "y": 10783
                            },
                            {
                                "x": 46,
                                "y": 11561
                            },
                            {
                                "x": 47,
                                "y": 12347
                            },
                            {
                                "x": 48,
                                "y": 13140
                            },
                            {
                                "x": 49,
                                "y": 13941
                            },
                            {
                                "x": 50,
                                "y": 14750
                            },
                            {
                                "x": 51,
                                "y": 15568
                            },
                            {
                                "x": 52,
                                "y": 16394
                            },
                            {
                                "x": 53,
                                "y": 17228
                            },
                            {
                                "x": 54,
                                "y": 18070
                            },
                            {
                                "x": 55,
                                "y": 18921
                            },
                            {
                                "x": 56,
                                "y": 19780
                            },
                            {
                                "x": 57,
                                "y": 20648
                            },
                            {
                                "x": 58,
                                "y": 21525
                            },
                            {
                                "x": 59,
                                "y": 22410
                            },
                            {
                                "x": 60,
                                "y": 23304
                            },
                            {
                                "x": 61,
                                "y": 24207
                            },
                            {
                                "x": 62,
                                "y": 25119
                            },
                            {
                                "x": 63,
                                "y": 26040
                            },
                            {
                                "x": 64,
                                "y": 26971
                            },
                            {
                                "x": 65,
                                "y": 27911
                            },
                            {
                                "x": 66,
                                "y": 28860
                            },
                            {
                                "x": 67,
                                "y": 29819
                            }
                        ],
                        "label": "Cumul Points",
                        "borderColor": "#aa0000",
                        "fill": false,
                        "lineTension": 0
                    }
                ]
            },
            "options": {
                "title": {
                    "display": true,
                    "text": "Cotisations"
                },
                "scales": {
                    "xAxes": [
                        {
                            "type": "linear"
                        }
                    ]
                }
            }
        },
        {
            "type": "line",
            "data": {
                "datasets": [
                    {
                        "data": [
                            {
                                "x": 62,
                                "y": "1036.16"
                            },
                            {
                                "x": 63,
                                "y": "1133.83"
                            },
                            {
                                "x": 64,
                                "y": "1236.17"
                            },
                            {
                                "x": 65,
                                "y": "1343.22"
                            },
                            {
                                "x": 66,
                                "y": "1455.03"
                            },
                            {
                                "x": 67,
                                "y": "1571.71"
                            }
                        ],
                        "label": "Pension Nouveau Syst\u00e8me",
                        "borderColor": "#00aa00",
                        "fill": false,
                        "lineTension": 0
                    },
                    {
                        "data": [
                            {
                                "x": 62,
                                "y": "825.75"
                            },
                            {
                                "x": 63,
                                "y": "926.68"
                            },
                            {
                                "x": 64,
                                "y": "1029.54"
                            },
                            {
                                "x": 65,
                                "y": "1134.36"
                            },
                            {
                                "x": 66,
                                "y": "1241.18"
                            },
                            {
                                "x": 67,
                                "y": "1928.60"
                            }
                        ],
                        "label": "Pension Syst\u00e8me Actuel",
                        "borderColor": "#0000aa",
                        "fill": false,
                        "lineTension": 0
                    },
                    {
                        "data": [
                            {
                                "x": 62,
                                "y": 2095.696153500036
                            },
                            {
                                "x": 63,
                                "y": 2116.6531150350365
                            },
                            {
                                "x": 64,
                                "y": 2137.819646185387
                            },
                            {
                                "x": 65,
                                "y": 2159.1978426472406
                            },
                            {
                                "x": 66,
                                "y": 2180.789821073713
                            },
                            {
                                "x": 67,
                                "y": 2202.59771928445
                            }
                        ],
                        "label": "SMIC",
                        "borderColor": "red",
                        "fill": false,
                        "lineTension": 0
                    }
                ]
            },
            "options": {
                "title": {
                    "display": true,
                    "text": "Pension"
                },
                "scales": {
                    "xAxes": [
                        {
                            "type": "linear"
                        }
                    ]
                }
            }
        }
    ]
}